Copyright 1986-2016 Xilinx, Inc. All Rights Reserved.
----------------------------------------------------------------------------------------------------------------------------------------------------------------------
| Tool Version     : Vivado v.2016.4 (lin64) Build 1733598 Wed Dec 14 22:35:42 MST 2016
| Date             : Thu Jul 25 13:02:12 2019
| Host             : zynq running 64-bit Ubuntu 14.04.5 LTS
| Command          : report_power -file design_1_wrapper_power_routed.rpt -pb design_1_wrapper_power_summary_routed.pb -rpx design_1_wrapper_power_routed.rpx
| Design           : design_1_wrapper
| Device           : xc7z020clg484-1
| Design State     : routed
| Grade            : commercial
| Process          : typical
| Characterization : Production
----------------------------------------------------------------------------------------------------------------------------------------------------------------------

Power Report

Table of Contents
-----------------
1. Summary
1.1 On-Chip Components
1.2 Power Supply Summary
1.3 Confidence Level
2. Settings
2.1 Environment
2.2 Clock Constraints
3. Detailed Reports
3.1 By Hierarchy

1. Summary
----------

+--------------------------+--------+
| Total On-Chip Power (W)  | 2.137  |
| Dynamic (W)              | 1.967  |
| Device Static (W)        | 0.171  |
| Effective TJA (C/W)      | 11.5   |
| Max Ambient (C)          | 60.3   |
| Junction Temperature (C) | 49.7   |
| Confidence Level         | Medium |
| Setting File             | ---    |
| Simulation Activity File | ---    |
| Design Nets Matched      | NA     |
+--------------------------+--------+


1.1 On-Chip Components
----------------------

+--------------------------+-----------+----------+-----------+-----------------+
| On-Chip                  | Power (W) | Used     | Available | Utilization (%) |
+--------------------------+-----------+----------+-----------+-----------------+
| Clocks                   |     0.122 |        4 |       --- |             --- |
| Slice Logic              |     0.129 |    67291 |       --- |             --- |
|   LUT as Logic           |     0.123 |    32545 |     53200 |           61.17 |
|   Register               |     0.004 |    30304 |    106400 |           28.48 |
|   LUT as Distributed RAM |     0.002 |      536 |     17400 |            3.08 |
|   CARRY4                 |    <0.001 |      189 |     13300 |            1.42 |
|   LUT as Shift Register  |    <0.001 |      112 |     17400 |            0.64 |
|   F7/F8 Muxes            |    <0.001 |       63 |     53200 |            0.12 |
|   Others                 |     0.000 |      967 |       --- |             --- |
| Signals                  |     0.178 |    39482 |       --- |             --- |
| Block RAM                |     0.008 |     19.5 |       140 |           13.93 |
| PS7                      |     1.529 |        1 |       --- |             --- |
| Static Power             |     0.171 |          |           |                 |
| Total                    |     2.137 |          |           |                 |
+--------------------------+-----------+----------+-----------+-----------------+


1.2 Power Supply Summary
------------------------

+-----------+-------------+-----------+-------------+------------+
| Source    | Voltage (V) | Total (A) | Dynamic (A) | Static (A) |
+-----------+-------------+-----------+-------------+------------+
| Vccint    |       1.000 |     0.456 |       0.437 |      0.019 |
| Vccaux    |       1.800 |     0.021 |       0.000 |      0.021 |
| Vcco33    |       3.300 |     0.001 |       0.000 |      0.001 |
| Vcco25    |       2.500 |     0.000 |       0.000 |      0.000 |
| Vcco18    |       1.800 |     0.001 |       0.000 |      0.001 |
| Vcco15    |       1.500 |     0.001 |       0.000 |      0.001 |
| Vcco135   |       1.350 |     0.000 |       0.000 |      0.000 |
| Vcco12    |       1.200 |     0.000 |       0.000 |      0.000 |
| Vccaux_io |       1.800 |     0.000 |       0.000 |      0.000 |
| Vccbram   |       1.000 |     0.003 |       0.001 |      0.003 |
| MGTAVcc   |       1.000 |     0.000 |       0.000 |      0.000 |
| MGTAVtt   |       1.200 |     0.000 |       0.000 |      0.000 |
| MGTVccaux |       1.800 |     0.000 |       0.000 |      0.000 |
| Vccpint   |       1.000 |     0.754 |       0.718 |      0.036 |
| Vccpaux   |       1.800 |     0.061 |       0.051 |      0.010 |
| Vccpll    |       1.800 |     0.017 |       0.014 |      0.003 |
| Vcco_ddr  |       1.500 |     0.459 |       0.457 |      0.002 |
| Vcco_mio0 |       3.300 |     0.003 |       0.002 |      0.001 |
| Vcco_mio1 |       1.800 |     0.003 |       0.002 |      0.001 |
| Vccadc    |       1.800 |     0.020 |       0.000 |      0.020 |
+-----------+-------------+-----------+-------------+------------+


1.3 Confidence Level
--------------------

+-----------------------------+------------+------------------------------------------------+------------------------------------------------------------------------------------------------------------+
| User Input Data             | Confidence | Details                                        | Action                                                                                                     |
+-----------------------------+------------+------------------------------------------------+------------------------------------------------------------------------------------------------------------+
| Design implementation state | High       | Design is routed                               |                                                                                                            |
| Clock nodes activity        | High       | User specified more than 95% of clocks         |                                                                                                            |
| I/O nodes activity          | High       | User specified more than 95% of inputs         |                                                                                                            |
| Internal nodes activity     | Medium     | User specified less than 25% of internal nodes | Provide missing internal nodes activity with simulation results or by editing the "By Resource Type" views |
| Device models               | High       | Device models are Production                   |                                                                                                            |
|                             |            |                                                |                                                                                                            |
| Overall confidence level    | Medium     |                                                |                                                                                                            |
+-----------------------------+------------+------------------------------------------------+------------------------------------------------------------------------------------------------------------+


2. Settings
-----------

2.1 Environment
---------------

+-----------------------+------------------------+
| Ambient Temp (C)      | 25.0                   |
| ThetaJA (C/W)         | 11.5                   |
| Airflow (LFM)         | 250                    |
| Heat Sink             | none                   |
| ThetaSA (C/W)         | 0.0                    |
| Board Selection       | medium (10"x10")       |
| # of Board Layers     | 8to11 (8 to 11 Layers) |
| Board Temperature (C) | 25.0                   |
+-----------------------+------------------------+


2.2 Clock Constraints
---------------------

+-------------------------------------------------------------------------+-------------------------------------------------------------+-----------------+
| Clock                                                                   | Domain                                                      | Constraint (ns) |
+-------------------------------------------------------------------------+-------------------------------------------------------------+-----------------+
| clk_fpga_0                                                              | design_1_i/processing_system7_0/inst/FCLK_CLK_unbuffered[0] |            10.0 |
| dbg_hub/inst/SWITCH_N_EXT_BSCAN.bscan_inst/SERIES7_BSCAN.bscan_inst/TCK | dbg_hub/inst/SWITCH_N_EXT_BSCAN.bscan_inst/tck_bs           |            33.0 |
+-------------------------------------------------------------------------+-------------------------------------------------------------+-----------------+


3. Detailed Reports
-------------------

3.1 By Hierarchy
----------------

+----------------------------------------------------------------------------------+-----------+
| Name                                                                             | Power (W) |
+----------------------------------------------------------------------------------+-----------+
| design_1_wrapper                                                                 |     1.967 |
|   dbg_hub                                                                        |     0.003 |
|     inst                                                                         |     0.003 |
|       CORE_XSDB.UUT_MASTER                                                       |     0.002 |
|         U_ICON_INTERFACE                                                         |     0.002 |
|           U_CMD1                                                                 |    <0.001 |
|           U_CMD2                                                                 |    <0.001 |
|           U_CMD3                                                                 |    <0.001 |
|           U_CMD4                                                                 |    <0.001 |
|           U_CMD5                                                                 |    <0.001 |
|           U_CMD6_RD                                                              |    <0.001 |
|             U_RD_FIFO                                                            |    <0.001 |
|               SUBCORE_FIFO.xsdbm_v2_0_2_rdfifo_inst                              |    <0.001 |
|                 inst_fifo_gen                                                    |    <0.001 |
|                   gconvfifo.rf                                                   |    <0.001 |
|                     grf.rf                                                       |    <0.001 |
|                       gntv_or_sync_fifo.gcx.clkx                                 |    <0.001 |
|                         gnxpm_cdc.gsync_stage[1].rd_stg_inst                     |    <0.001 |
|                         gnxpm_cdc.gsync_stage[1].wr_stg_inst                     |    <0.001 |
|                         gnxpm_cdc.gsync_stage[2].rd_stg_inst                     |    <0.001 |
|                         gnxpm_cdc.gsync_stage[2].wr_stg_inst                     |    <0.001 |
|                       gntv_or_sync_fifo.gl0.rd                                   |    <0.001 |
|                         gr1.gr1_int.rfwft                                        |    <0.001 |
|                         gras.rsts                                                |    <0.001 |
|                         rpntr                                                    |    <0.001 |
|                       gntv_or_sync_fifo.gl0.wr                                   |    <0.001 |
|                         gwas.wsts                                                |    <0.001 |
|                         wpntr                                                    |    <0.001 |
|                       gntv_or_sync_fifo.mem                                      |    <0.001 |
|                         gdm.dm_gen.dm                                            |    <0.001 |
|                           RAM_reg_0_15_0_5                                       |    <0.001 |
|                           RAM_reg_0_15_12_15                                     |    <0.001 |
|                           RAM_reg_0_15_6_11                                      |    <0.001 |
|                       rstblk                                                     |    <0.001 |
|                         ngwrdrst.grst.g7serrst.gwrrd_rst_sync_stage[1].rrst_inst |    <0.001 |
|                         ngwrdrst.grst.g7serrst.gwrrd_rst_sync_stage[1].wrst_inst |    <0.001 |
|                         ngwrdrst.grst.g7serrst.gwrrd_rst_sync_stage[2].rrst_inst |    <0.001 |
|                         ngwrdrst.grst.g7serrst.gwrrd_rst_sync_stage[2].wrst_inst |    <0.001 |
|           U_CMD6_WR                                                              |    <0.001 |
|             U_WR_FIFO                                                            |    <0.001 |
|               SUBCORE_FIFO.xsdbm_v2_0_2_wrfifo_inst                              |    <0.001 |
|                 inst_fifo_gen                                                    |    <0.001 |
|                   gconvfifo.rf                                                   |    <0.001 |
|                     grf.rf                                                       |    <0.001 |
|                       gntv_or_sync_fifo.gcx.clkx                                 |    <0.001 |
|                         gnxpm_cdc.gsync_stage[1].rd_stg_inst                     |    <0.001 |
|                         gnxpm_cdc.gsync_stage[1].wr_stg_inst                     |    <0.001 |
|                         gnxpm_cdc.gsync_stage[2].rd_stg_inst                     |    <0.001 |
|                         gnxpm_cdc.gsync_stage[2].wr_stg_inst                     |    <0.001 |
|                       gntv_or_sync_fifo.gl0.rd                                   |    <0.001 |
|                         gras.rsts                                                |    <0.001 |
|                         rpntr                                                    |    <0.001 |
|                       gntv_or_sync_fifo.gl0.wr                                   |    <0.001 |
|                         gwas.wsts                                                |    <0.001 |
|                         wpntr                                                    |    <0.001 |
|                       gntv_or_sync_fifo.mem                                      |    <0.001 |
|                         gdm.dm_gen.dm                                            |    <0.001 |
|                           RAM_reg_0_15_0_5                                       |    <0.001 |
|                           RAM_reg_0_15_12_15                                     |    <0.001 |
|                           RAM_reg_0_15_6_11                                      |    <0.001 |
|                       rstblk                                                     |    <0.001 |
|                         ngwrdrst.grst.g7serrst.gwrrd_rst_sync_stage[1].rrst_inst |    <0.001 |
|                         ngwrdrst.grst.g7serrst.gwrrd_rst_sync_stage[1].wrst_inst |    <0.001 |
|                         ngwrdrst.grst.g7serrst.gwrrd_rst_sync_stage[2].rrst_inst |    <0.001 |
|                         ngwrdrst.grst.g7serrst.gwrrd_rst_sync_stage[2].wrst_inst |    <0.001 |
|           U_CMD7_CTL                                                             |    <0.001 |
|           U_CMD7_STAT                                                            |    <0.001 |
|           U_STATIC_STATUS                                                        |    <0.001 |
|         U_XSDB_ADDRESS_CONTROLLER                                                |    <0.001 |
|         U_XSDB_BURST_WD_LEN_CONTROLLER                                           |    <0.001 |
|         U_XSDB_BUS_CONTROLLER                                                    |    <0.001 |
|           U_RD_ABORT_FLAG                                                        |    <0.001 |
|           U_RD_REQ_FLAG                                                          |    <0.001 |
|           U_TIMER                                                                |    <0.001 |
|         U_XSDB_BUS_MSTR2SL_PORT_IFACE                                            |    <0.001 |
|       CORE_XSDB.U_ICON                                                           |    <0.001 |
|         U_CMD                                                                    |    <0.001 |
|         U_STAT                                                                   |    <0.001 |
|         U_SYNC                                                                   |    <0.001 |
|       SWITCH_N_EXT_BSCAN.bscan_inst                                              |    <0.001 |
|       SWITCH_N_EXT_BSCAN.bscan_switch                                            |    <0.001 |
|   design_1_i                                                                     |     1.949 |
|     NOC_AXI_testmodule_vc_support_0                                              |     0.410 |
|       inst                                                                       |     0.410 |
|         AXI_NIC_0                                                                |     0.032 |
|           lisnoc_axi_slave_v1_0_S00_AXI_inst                                     |     0.002 |
|             BYTE_BRAM_GEN[0].byte_ram_reg_0_15_0_5                               |    <0.001 |
|             BYTE_BRAM_GEN[0].byte_ram_reg_0_15_6_7                               |    <0.001 |
|             BYTE_BRAM_GEN[1].byte_ram_reg_0_15_0_5                               |    <0.001 |
|             BYTE_BRAM_GEN[1].byte_ram_reg_0_15_6_7                               |    <0.001 |
|             BYTE_BRAM_GEN[2].byte_ram_reg_0_15_0_5                               |    <0.001 |
|             BYTE_BRAM_GEN[2].byte_ram_reg_0_15_6_7                               |    <0.001 |
|             BYTE_BRAM_GEN[3].byte_ram_reg_0_15_0_5                               |    <0.001 |
|             BYTE_BRAM_GEN[3].byte_ram_reg_0_15_6_7                               |    <0.001 |
|           multiplexed_input                                                      |     0.017 |
|             genblk1[0].input_to_stream                                           |    <0.001 |
|               recieving_packet_buffer_reg_0_15_0_5                               |    <0.001 |
|               recieving_packet_buffer_reg_0_15_12_17                             |    <0.001 |
|               recieving_packet_buffer_reg_0_15_18_23                             |    <0.001 |
|               recieving_packet_buffer_reg_0_15_24_29                             |    <0.001 |
|               recieving_packet_buffer_reg_0_15_30_31                             |    <0.001 |
|               recieving_packet_buffer_reg_0_15_6_11                              |    <0.001 |
|             genblk1[0].recieving_fifo                                            |     0.004 |
|             genblk1[1].input_to_stream                                           |    <0.001 |
|               recieving_packet_buffer_reg_0_15_0_5                               |    <0.001 |
|               recieving_packet_buffer_reg_0_15_12_17                             |    <0.001 |
|               recieving_packet_buffer_reg_0_15_18_23                             |    <0.001 |
|               recieving_packet_buffer_reg_0_15_24_29                             |    <0.001 |
|               recieving_packet_buffer_reg_0_15_30_31                             |    <0.001 |
|               recieving_packet_buffer_reg_0_15_6_11                              |    <0.001 |
|             genblk1[1].recieving_fifo                                            |     0.004 |
|             genblk1[2].input_to_stream                                           |    <0.001 |
|               recieving_packet_buffer_reg_0_15_0_5                               |    <0.001 |
|               recieving_packet_buffer_reg_0_15_12_17                             |    <0.001 |
|               recieving_packet_buffer_reg_0_15_18_23                             |    <0.001 |
|               recieving_packet_buffer_reg_0_15_24_29                             |    <0.001 |
|               recieving_packet_buffer_reg_0_15_30_31                             |    <0.001 |
|               recieving_packet_buffer_reg_0_15_6_11                              |    <0.001 |
|             genblk1[2].recieving_fifo                                            |     0.004 |
|             genblk1[3].input_to_stream                                           |    <0.001 |
|               recieving_packet_buffer_reg_0_15_0_5                               |    <0.001 |
|               recieving_packet_buffer_reg_0_15_12_17                             |    <0.001 |
|               recieving_packet_buffer_reg_0_15_18_23                             |    <0.001 |
|               recieving_packet_buffer_reg_0_15_24_29                             |    <0.001 |
|               recieving_packet_buffer_reg_0_15_30_31                             |    <0.001 |
|               recieving_packet_buffer_reg_0_15_6_11                              |    <0.001 |
|             genblk1[3].recieving_fifo                                            |     0.004 |
|           multiplexed_output                                                     |     0.008 |
|             genblk1[0].output_to_flits                                           |    <0.001 |
|             genblk1[0].sending_fifo                                              |     0.002 |
|             genblk1[1].output_to_flits                                           |    <0.001 |
|             genblk1[1].sending_fifo                                              |     0.002 |
|             genblk1[2].output_to_flits                                           |    <0.001 |
|             genblk1[2].sending_fifo                                              |     0.002 |
|             genblk1[3].output_to_flits                                           |    <0.001 |
|             genblk1[3].sending_fifo                                              |     0.002 |
|         AXI_NIC_1                                                                |     0.033 |
|           lisnoc_axi_slave_v1_0_S00_AXI_inst                                     |     0.002 |
|             BYTE_BRAM_GEN[0].byte_ram_reg_0_15_0_5                               |    <0.001 |
|             BYTE_BRAM_GEN[0].byte_ram_reg_0_15_6_7                               |    <0.001 |
|             BYTE_BRAM_GEN[1].byte_ram_reg_0_15_0_5                               |    <0.001 |
|             BYTE_BRAM_GEN[1].byte_ram_reg_0_15_6_7                               |    <0.001 |
|             BYTE_BRAM_GEN[2].byte_ram_reg_0_15_0_5                               |    <0.001 |
|             BYTE_BRAM_GEN[2].byte_ram_reg_0_15_6_7                               |    <0.001 |
|             BYTE_BRAM_GEN[3].byte_ram_reg_0_15_0_5                               |    <0.001 |
|             BYTE_BRAM_GEN[3].byte_ram_reg_0_15_6_7                               |    <0.001 |
|           multiplexed_input                                                      |     0.017 |
|             genblk1[0].input_to_stream                                           |    <0.001 |
|               recieving_packet_buffer_reg_0_15_0_5                               |    <0.001 |
|               recieving_packet_buffer_reg_0_15_12_17                             |    <0.001 |
|               recieving_packet_buffer_reg_0_15_18_23                             |    <0.001 |
|               recieving_packet_buffer_reg_0_15_24_29                             |    <0.001 |
|               recieving_packet_buffer_reg_0_15_30_31                             |    <0.001 |
|               recieving_packet_buffer_reg_0_15_6_11                              |    <0.001 |
|             genblk1[0].recieving_fifo                                            |     0.004 |
|             genblk1[1].input_to_stream                                           |    <0.001 |
|               recieving_packet_buffer_reg_0_15_0_5                               |    <0.001 |
|               recieving_packet_buffer_reg_0_15_12_17                             |    <0.001 |
|               recieving_packet_buffer_reg_0_15_18_23                             |    <0.001 |
|               recieving_packet_buffer_reg_0_15_24_29                             |    <0.001 |
|               recieving_packet_buffer_reg_0_15_30_31                             |    <0.001 |
|               recieving_packet_buffer_reg_0_15_6_11                              |    <0.001 |
|             genblk1[1].recieving_fifo                                            |     0.004 |
|             genblk1[2].input_to_stream                                           |    <0.001 |
|               recieving_packet_buffer_reg_0_15_0_5                               |    <0.001 |
|               recieving_packet_buffer_reg_0_15_12_17                             |    <0.001 |
|               recieving_packet_buffer_reg_0_15_18_23                             |    <0.001 |
|               recieving_packet_buffer_reg_0_15_24_29                             |    <0.001 |
|               recieving_packet_buffer_reg_0_15_30_31                             |    <0.001 |
|               recieving_packet_buffer_reg_0_15_6_11                              |    <0.001 |
|             genblk1[2].recieving_fifo                                            |     0.004 |
|             genblk1[3].input_to_stream                                           |    <0.001 |
|               recieving_packet_buffer_reg_0_15_0_5                               |    <0.001 |
|               recieving_packet_buffer_reg_0_15_12_17                             |    <0.001 |
|               recieving_packet_buffer_reg_0_15_18_23                             |    <0.001 |
|               recieving_packet_buffer_reg_0_15_24_29                             |    <0.001 |
|               recieving_packet_buffer_reg_0_15_30_31                             |    <0.001 |
|               recieving_packet_buffer_reg_0_15_6_11                              |    <0.001 |
|             genblk1[3].recieving_fifo                                            |     0.004 |
|           multiplexed_output                                                     |     0.008 |
|             genblk1[0].output_to_flits                                           |    <0.001 |
|             genblk1[0].sending_fifo                                              |     0.002 |
|             genblk1[1].output_to_flits                                           |    <0.001 |
|             genblk1[1].sending_fifo                                              |     0.002 |
|             genblk1[2].output_to_flits                                           |    <0.001 |
|             genblk1[2].sending_fifo                                              |     0.002 |
|             genblk1[3].output_to_flits                                           |    <0.001 |
|             genblk1[3].sending_fifo                                              |     0.002 |
|         AXI_NIC_2                                                                |     0.032 |
|           lisnoc_axi_slave_v1_0_S00_AXI_inst                                     |     0.002 |
|             BYTE_BRAM_GEN[0].byte_ram_reg_0_15_0_5                               |    <0.001 |
|             BYTE_BRAM_GEN[0].byte_ram_reg_0_15_6_7                               |    <0.001 |
|             BYTE_BRAM_GEN[1].byte_ram_reg_0_15_0_5                               |    <0.001 |
|             BYTE_BRAM_GEN[1].byte_ram_reg_0_15_6_7                               |    <0.001 |
|             BYTE_BRAM_GEN[2].byte_ram_reg_0_15_0_5                               |    <0.001 |
|             BYTE_BRAM_GEN[2].byte_ram_reg_0_15_6_7                               |    <0.001 |
|             BYTE_BRAM_GEN[3].byte_ram_reg_0_15_0_5                               |    <0.001 |
|             BYTE_BRAM_GEN[3].byte_ram_reg_0_15_6_7                               |    <0.001 |
|           multiplexed_input                                                      |     0.017 |
|             genblk1[0].input_to_stream                                           |    <0.001 |
|               recieving_packet_buffer_reg_0_15_0_5                               |    <0.001 |
|               recieving_packet_buffer_reg_0_15_12_17                             |    <0.001 |
|               recieving_packet_buffer_reg_0_15_18_23                             |    <0.001 |
|               recieving_packet_buffer_reg_0_15_24_29                             |    <0.001 |
|               recieving_packet_buffer_reg_0_15_30_31                             |    <0.001 |
|               recieving_packet_buffer_reg_0_15_6_11                              |    <0.001 |
|             genblk1[0].recieving_fifo                                            |     0.004 |
|             genblk1[1].input_to_stream                                           |    <0.001 |
|               recieving_packet_buffer_reg_0_15_0_5                               |    <0.001 |
|               recieving_packet_buffer_reg_0_15_12_17                             |    <0.001 |
|               recieving_packet_buffer_reg_0_15_18_23                             |    <0.001 |
|               recieving_packet_buffer_reg_0_15_24_29                             |    <0.001 |
|               recieving_packet_buffer_reg_0_15_30_31                             |    <0.001 |
|               recieving_packet_buffer_reg_0_15_6_11                              |    <0.001 |
|             genblk1[1].recieving_fifo                                            |     0.004 |
|             genblk1[2].input_to_stream                                           |    <0.001 |
|               recieving_packet_buffer_reg_0_15_0_5                               |    <0.001 |
|               recieving_packet_buffer_reg_0_15_12_17                             |    <0.001 |
|               recieving_packet_buffer_reg_0_15_18_23                             |    <0.001 |
|               recieving_packet_buffer_reg_0_15_24_29                             |    <0.001 |
|               recieving_packet_buffer_reg_0_15_30_31                             |    <0.001 |
|               recieving_packet_buffer_reg_0_15_6_11                              |    <0.001 |
|             genblk1[2].recieving_fifo                                            |     0.004 |
|             genblk1[3].input_to_stream                                           |    <0.001 |
|               recieving_packet_buffer_reg_0_15_0_5                               |    <0.001 |
|               recieving_packet_buffer_reg_0_15_12_17                             |    <0.001 |
|               recieving_packet_buffer_reg_0_15_18_23                             |    <0.001 |
|               recieving_packet_buffer_reg_0_15_24_29                             |    <0.001 |
|               recieving_packet_buffer_reg_0_15_30_31                             |    <0.001 |
|               recieving_packet_buffer_reg_0_15_6_11                              |    <0.001 |
|             genblk1[3].recieving_fifo                                            |     0.004 |
|           multiplexed_output                                                     |     0.008 |
|             genblk1[0].output_to_flits                                           |    <0.001 |
|             genblk1[0].sending_fifo                                              |     0.002 |
|             genblk1[1].output_to_flits                                           |    <0.001 |
|             genblk1[1].sending_fifo                                              |     0.002 |
|             genblk1[2].output_to_flits                                           |    <0.001 |
|             genblk1[2].sending_fifo                                              |     0.002 |
|             genblk1[3].output_to_flits                                           |    <0.001 |
|             genblk1[3].sending_fifo                                              |     0.002 |
|         AXI_NIC_3                                                                |     0.033 |
|           lisnoc_axi_slave_v1_0_S00_AXI_inst                                     |     0.002 |
|             BYTE_BRAM_GEN[0].byte_ram_reg_0_15_0_5                               |    <0.001 |
|             BYTE_BRAM_GEN[0].byte_ram_reg_0_15_6_7                               |    <0.001 |
|             BYTE_BRAM_GEN[1].byte_ram_reg_0_15_0_5                               |    <0.001 |
|             BYTE_BRAM_GEN[1].byte_ram_reg_0_15_6_7                               |    <0.001 |
|             BYTE_BRAM_GEN[2].byte_ram_reg_0_15_0_5                               |    <0.001 |
|             BYTE_BRAM_GEN[2].byte_ram_reg_0_15_6_7                               |    <0.001 |
|             BYTE_BRAM_GEN[3].byte_ram_reg_0_15_0_5                               |    <0.001 |
|             BYTE_BRAM_GEN[3].byte_ram_reg_0_15_6_7                               |    <0.001 |
|           multiplexed_input                                                      |     0.018 |
|             genblk1[0].input_to_stream                                           |    <0.001 |
|               recieving_packet_buffer_reg_0_15_0_5                               |    <0.001 |
|               recieving_packet_buffer_reg_0_15_12_17                             |    <0.001 |
|               recieving_packet_buffer_reg_0_15_18_23                             |    <0.001 |
|               recieving_packet_buffer_reg_0_15_24_29                             |    <0.001 |
|               recieving_packet_buffer_reg_0_15_30_31                             |    <0.001 |
|               recieving_packet_buffer_reg_0_15_6_11                              |    <0.001 |
|             genblk1[0].recieving_fifo                                            |     0.004 |
|             genblk1[1].input_to_stream                                           |    <0.001 |
|               recieving_packet_buffer_reg_0_15_0_5                               |    <0.001 |
|               recieving_packet_buffer_reg_0_15_12_17                             |    <0.001 |
|               recieving_packet_buffer_reg_0_15_18_23                             |    <0.001 |
|               recieving_packet_buffer_reg_0_15_24_29                             |    <0.001 |
|               recieving_packet_buffer_reg_0_15_30_31                             |    <0.001 |
|               recieving_packet_buffer_reg_0_15_6_11                              |    <0.001 |
|             genblk1[1].recieving_fifo                                            |     0.004 |
|             genblk1[2].input_to_stream                                           |    <0.001 |
|               recieving_packet_buffer_reg_0_15_0_5                               |    <0.001 |
|               recieving_packet_buffer_reg_0_15_12_17                             |    <0.001 |
|               recieving_packet_buffer_reg_0_15_18_23                             |    <0.001 |
|               recieving_packet_buffer_reg_0_15_24_29                             |    <0.001 |
|               recieving_packet_buffer_reg_0_15_30_31                             |    <0.001 |
|               recieving_packet_buffer_reg_0_15_6_11                              |    <0.001 |
|             genblk1[2].recieving_fifo                                            |     0.004 |
|             genblk1[3].input_to_stream                                           |    <0.001 |
|               recieving_packet_buffer_reg_0_15_0_5                               |    <0.001 |
|               recieving_packet_buffer_reg_0_15_12_17                             |    <0.001 |
|               recieving_packet_buffer_reg_0_15_18_23                             |    <0.001 |
|               recieving_packet_buffer_reg_0_15_24_29                             |    <0.001 |
|               recieving_packet_buffer_reg_0_15_30_31                             |    <0.001 |
|               recieving_packet_buffer_reg_0_15_6_11                              |    <0.001 |
|             genblk1[3].recieving_fifo                                            |     0.004 |
|           multiplexed_output                                                     |     0.008 |
|             genblk1[0].output_to_flits                                           |    <0.001 |
|             genblk1[0].sending_fifo                                              |     0.002 |
|             genblk1[1].output_to_flits                                           |    <0.001 |
|             genblk1[1].sending_fifo                                              |     0.002 |
|             genblk1[2].output_to_flits                                           |    <0.001 |
|             genblk1[2].sending_fifo                                              |     0.002 |
|             genblk1[3].output_to_flits                                           |    <0.001 |
|             genblk1[3].sending_fifo                                              |     0.002 |
|         network                                                                  |     0.280 |
|           u_router_0_0                                                           |     0.066 |
|             u_router                                                             |     0.050 |
|               inputs[1].inputs                                                   |     0.007 |
|                 vchannel[0].fifo                                                 |     0.002 |
|                 vchannel[0].route                                                |    <0.001 |
|                 vchannel[1].fifo                                                 |     0.002 |
|                 vchannel[1].route                                                |    <0.001 |
|                 vchannel[2].fifo                                                 |     0.001 |
|                 vchannel[2].route                                                |    <0.001 |
|                 vchannel[3].fifo                                                 |     0.002 |
|                 vchannel[3].route                                                |    <0.001 |
|               inputs[2].inputs                                                   |     0.007 |
|                 vchannel[0].fifo                                                 |     0.002 |
|                 vchannel[0].route                                                |    <0.001 |
|                 vchannel[1].fifo                                                 |     0.002 |
|                 vchannel[1].route                                                |    <0.001 |
|                 vchannel[2].fifo                                                 |     0.002 |
|                 vchannel[2].route                                                |    <0.001 |
|                 vchannel[3].fifo                                                 |     0.002 |
|                 vchannel[3].route                                                |    <0.001 |
|               inputs[4].inputs                                                   |     0.006 |
|                 vchannel[0].fifo                                                 |     0.002 |
|                 vchannel[0].route                                                |    <0.001 |
|                 vchannel[1].fifo                                                 |     0.001 |
|                 vchannel[1].route                                                |    <0.001 |
|                 vchannel[2].fifo                                                 |     0.001 |
|                 vchannel[2].route                                                |    <0.001 |
|                 vchannel[3].fifo                                                 |     0.001 |
|                 vchannel[3].route                                                |    <0.001 |
|               outputs[1].outputs                                                 |     0.008 |
|                 output_arbiter                                                   |     0.002 |
|                 vchannel[0].arbiter                                              |    <0.001 |
|                 vchannel[0].fifo                                                 |    <0.001 |
|                 vchannel[1].arbiter                                              |    <0.001 |
|                 vchannel[1].fifo                                                 |    <0.001 |
|                 vchannel[2].arbiter                                              |    <0.001 |
|                 vchannel[2].fifo                                                 |    <0.001 |
|                 vchannel[3].arbiter                                              |    <0.001 |
|                 vchannel[3].fifo                                                 |     0.001 |
|               outputs[2].outputs                                                 |     0.009 |
|                 output_arbiter                                                   |     0.002 |
|                 vchannel[0].arbiter                                              |    <0.001 |
|                 vchannel[0].fifo                                                 |    <0.001 |
|                 vchannel[1].arbiter                                              |    <0.001 |
|                 vchannel[1].fifo                                                 |    <0.001 |
|                 vchannel[2].arbiter                                              |    <0.001 |
|                 vchannel[2].fifo                                                 |    <0.001 |
|                 vchannel[3].arbiter                                              |    <0.001 |
|                 vchannel[3].fifo                                                 |     0.001 |
|               outputs[4].outputs                                                 |     0.012 |
|                 output_arbiter                                                   |     0.003 |
|                 vchannel[0].arbiter                                              |     0.001 |
|                 vchannel[0].fifo                                                 |    <0.001 |
|                 vchannel[1].arbiter                                              |     0.001 |
|                 vchannel[1].fifo                                                 |    <0.001 |
|                 vchannel[2].arbiter                                              |     0.002 |
|                 vchannel[2].fifo                                                 |    <0.001 |
|                 vchannel[3].arbiter                                              |     0.001 |
|                 vchannel[3].fifo                                                 |     0.001 |
|           u_router_0_1                                                           |     0.072 |
|             u_router                                                             |     0.053 |
|               inputs[2].inputs                                                   |     0.008 |
|                 vchannel[0].fifo                                                 |     0.002 |
|                 vchannel[0].route                                                |    <0.001 |
|                 vchannel[1].fifo                                                 |     0.002 |
|                 vchannel[1].route                                                |    <0.001 |
|                 vchannel[2].fifo                                                 |     0.001 |
|                 vchannel[2].route                                                |    <0.001 |
|                 vchannel[3].fifo                                                 |     0.002 |
|                 vchannel[3].route                                                |    <0.001 |
|               inputs[3].inputs                                                   |     0.007 |
|                 vchannel[0].fifo                                                 |     0.002 |
|                 vchannel[0].route                                                |    <0.001 |
|                 vchannel[1].fifo                                                 |     0.002 |
|                 vchannel[1].route                                                |    <0.001 |
|                 vchannel[2].fifo                                                 |     0.001 |
|                 vchannel[2].route                                                |    <0.001 |
|                 vchannel[3].fifo                                                 |     0.002 |
|                 vchannel[3].route                                                |    <0.001 |
|               inputs[4].inputs                                                   |     0.007 |
|                 vchannel[0].fifo                                                 |     0.001 |
|                 vchannel[0].route                                                |    <0.001 |
|                 vchannel[1].fifo                                                 |     0.001 |
|                 vchannel[1].route                                                |    <0.001 |
|                 vchannel[2].fifo                                                 |     0.001 |
|                 vchannel[2].route                                                |    <0.001 |
|                 vchannel[3].fifo                                                 |     0.001 |
|                 vchannel[3].route                                                |    <0.001 |
|               outputs[2].outputs                                                 |     0.009 |
|                 output_arbiter                                                   |     0.002 |
|                 vchannel[0].arbiter                                              |     0.001 |
|                 vchannel[0].fifo                                                 |    <0.001 |
|                 vchannel[1].arbiter                                              |     0.001 |
|                 vchannel[1].fifo                                                 |    <0.001 |
|                 vchannel[2].arbiter                                              |     0.001 |
|                 vchannel[2].fifo                                                 |    <0.001 |
|                 vchannel[3].arbiter                                              |    <0.001 |
|                 vchannel[3].fifo                                                 |     0.001 |
|               outputs[3].outputs                                                 |     0.011 |
|                 output_arbiter                                                   |     0.002 |
|                 vchannel[0].arbiter                                              |     0.001 |
|                 vchannel[0].fifo                                                 |    <0.001 |
|                 vchannel[1].arbiter                                              |     0.001 |
|                 vchannel[1].fifo                                                 |    <0.001 |
|                 vchannel[2].arbiter                                              |     0.001 |
|                 vchannel[2].fifo                                                 |    <0.001 |
|                 vchannel[3].arbiter                                              |    <0.001 |
|                 vchannel[3].fifo                                                 |     0.001 |
|               outputs[4].outputs                                                 |     0.012 |
|                 output_arbiter                                                   |     0.005 |
|                 vchannel[0].arbiter                                              |     0.001 |
|                 vchannel[0].fifo                                                 |    <0.001 |
|                 vchannel[1].arbiter                                              |    <0.001 |
|                 vchannel[1].fifo                                                 |    <0.001 |
|                 vchannel[2].arbiter                                              |    <0.001 |
|                 vchannel[2].fifo                                                 |    <0.001 |
|                 vchannel[3].arbiter                                              |    <0.001 |
|                 vchannel[3].fifo                                                 |     0.001 |
|           u_router_1_0                                                           |     0.072 |
|             u_router                                                             |     0.054 |
|               inputs[0].inputs                                                   |     0.008 |
|                 vchannel[0].fifo                                                 |     0.002 |
|                 vchannel[0].route                                                |    <0.001 |
|                 vchannel[1].fifo                                                 |     0.002 |
|                 vchannel[1].route                                                |    <0.001 |
|                 vchannel[2].fifo                                                 |     0.001 |
|                 vchannel[2].route                                                |    <0.001 |
|                 vchannel[3].fifo                                                 |     0.002 |
|                 vchannel[3].route                                                |    <0.001 |
|               inputs[1].inputs                                                   |     0.008 |
|                 vchannel[0].fifo                                                 |     0.002 |
|                 vchannel[0].route                                                |    <0.001 |
|                 vchannel[1].fifo                                                 |     0.002 |
|                 vchannel[1].route                                                |    <0.001 |
|                 vchannel[2].fifo                                                 |     0.002 |
|                 vchannel[2].route                                                |    <0.001 |
|                 vchannel[3].fifo                                                 |     0.002 |
|                 vchannel[3].route                                                |    <0.001 |
|               inputs[4].inputs                                                   |     0.006 |
|                 vchannel[0].fifo                                                 |     0.001 |
|                 vchannel[0].route                                                |    <0.001 |
|                 vchannel[1].fifo                                                 |     0.001 |
|                 vchannel[1].route                                                |    <0.001 |
|                 vchannel[2].fifo                                                 |     0.001 |
|                 vchannel[2].route                                                |    <0.001 |
|                 vchannel[3].fifo                                                 |     0.001 |
|                 vchannel[3].route                                                |    <0.001 |
|               outputs[0].outputs                                                 |     0.012 |
|                 output_arbiter                                                   |     0.002 |
|                 vchannel[0].arbiter                                              |     0.002 |
|                 vchannel[0].fifo                                                 |    <0.001 |
|                 vchannel[1].arbiter                                              |     0.002 |
|                 vchannel[1].fifo                                                 |    <0.001 |
|                 vchannel[2].arbiter                                              |     0.002 |
|                 vchannel[2].fifo                                                 |    <0.001 |
|                 vchannel[3].arbiter                                              |     0.001 |
|                 vchannel[3].fifo                                                 |     0.001 |
|               outputs[1].outputs                                                 |     0.009 |
|                 output_arbiter                                                   |     0.002 |
|                 vchannel[0].arbiter                                              |     0.001 |
|                 vchannel[0].fifo                                                 |    <0.001 |
|                 vchannel[1].arbiter                                              |    <0.001 |
|                 vchannel[1].fifo                                                 |    <0.001 |
|                 vchannel[2].arbiter                                              |    <0.001 |
|                 vchannel[2].fifo                                                 |    <0.001 |
|                 vchannel[3].arbiter                                              |    <0.001 |
|                 vchannel[3].fifo                                                 |     0.001 |
|               outputs[4].outputs                                                 |     0.012 |
|                 output_arbiter                                                   |     0.004 |
|                 vchannel[0].arbiter                                              |     0.001 |
|                 vchannel[0].fifo                                                 |    <0.001 |
|                 vchannel[1].arbiter                                              |     0.001 |
|                 vchannel[1].fifo                                                 |    <0.001 |
|                 vchannel[2].arbiter                                              |     0.001 |
|                 vchannel[2].fifo                                                 |    <0.001 |
|                 vchannel[3].arbiter                                              |    <0.001 |
|                 vchannel[3].fifo                                                 |     0.001 |
|           u_router_1_1                                                           |     0.070 |
|             u_router                                                             |     0.055 |
|               inputs[0].inputs                                                   |     0.008 |
|                 vchannel[0].fifo                                                 |     0.002 |
|                 vchannel[0].route                                                |    <0.001 |
|                 vchannel[1].fifo                                                 |     0.002 |
|                 vchannel[1].route                                                |    <0.001 |
|                 vchannel[2].fifo                                                 |     0.001 |
|                 vchannel[2].route                                                |    <0.001 |
|                 vchannel[3].fifo                                                 |     0.002 |
|                 vchannel[3].route                                                |    <0.001 |
|               inputs[3].inputs                                                   |     0.008 |
|                 vchannel[0].fifo                                                 |     0.002 |
|                 vchannel[0].route                                                |    <0.001 |
|                 vchannel[1].fifo                                                 |     0.002 |
|                 vchannel[1].route                                                |    <0.001 |
|                 vchannel[2].fifo                                                 |     0.002 |
|                 vchannel[2].route                                                |    <0.001 |
|                 vchannel[3].fifo                                                 |     0.002 |
|                 vchannel[3].route                                                |    <0.001 |
|               inputs[4].inputs                                                   |     0.006 |
|                 vchannel[0].fifo                                                 |     0.001 |
|                 vchannel[0].route                                                |    <0.001 |
|                 vchannel[1].fifo                                                 |     0.001 |
|                 vchannel[1].route                                                |    <0.001 |
|                 vchannel[2].fifo                                                 |     0.001 |
|                 vchannel[2].route                                                |    <0.001 |
|                 vchannel[3].fifo                                                 |     0.001 |
|                 vchannel[3].route                                                |    <0.001 |
|               outputs[0].outputs                                                 |     0.012 |
|                 output_arbiter                                                   |     0.002 |
|                 vchannel[0].arbiter                                              |     0.002 |
|                 vchannel[0].fifo                                                 |    <0.001 |
|                 vchannel[1].arbiter                                              |     0.002 |
|                 vchannel[1].fifo                                                 |    <0.001 |
|                 vchannel[2].arbiter                                              |     0.002 |
|                 vchannel[2].fifo                                                 |    <0.001 |
|                 vchannel[3].arbiter                                              |     0.001 |
|                 vchannel[3].fifo                                                 |     0.001 |
|               outputs[3].outputs                                                 |     0.010 |
|                 output_arbiter                                                   |     0.002 |
|                 vchannel[0].arbiter                                              |     0.001 |
|                 vchannel[0].fifo                                                 |    <0.001 |
|                 vchannel[1].arbiter                                              |     0.001 |
|                 vchannel[1].fifo                                                 |    <0.001 |
|                 vchannel[2].arbiter                                              |     0.001 |
|                 vchannel[2].fifo                                                 |    <0.001 |
|                 vchannel[3].arbiter                                              |    <0.001 |
|                 vchannel[3].fifo                                                 |     0.001 |
|               outputs[4].outputs                                                 |     0.012 |
|                 output_arbiter                                                   |     0.004 |
|                 vchannel[0].arbiter                                              |     0.001 |
|                 vchannel[0].fifo                                                 |    <0.001 |
|                 vchannel[1].arbiter                                              |     0.001 |
|                 vchannel[1].fifo                                                 |    <0.001 |
|                 vchannel[2].arbiter                                              |     0.001 |
|                 vchannel[2].fifo                                                 |    <0.001 |
|                 vchannel[3].arbiter                                              |    <0.001 |
|                 vchannel[3].fifo                                                 |     0.001 |
|     processing_system7_0                                                         |     1.530 |
|       inst                                                                       |     1.530 |
|     ps7_0_axi_periph                                                             |     0.008 |
|       s00_couplers                                                               |     0.000 |
|         auto_pc                                                                  |     0.000 |
|           inst                                                                   |     0.000 |
|       xbar                                                                       |     0.008 |
|         inst                                                                     |     0.008 |
|           gen_samd.crossbar_samd                                                 |     0.008 |
|             addr_arbiter_ar                                                      |    <0.001 |
|             addr_arbiter_aw                                                      |    <0.001 |
|             gen_decerr_slave.decerr_slave_inst                                   |    <0.001 |
|             gen_master_slots[0].reg_slice_mi                                     |    <0.001 |
|               b_pipe                                                             |    <0.001 |
|               r_pipe                                                             |    <0.001 |
|             gen_master_slots[1].reg_slice_mi                                     |    <0.001 |
|               b_pipe                                                             |    <0.001 |
|               r_pipe                                                             |    <0.001 |
|             gen_master_slots[2].reg_slice_mi                                     |    <0.001 |
|               b_pipe                                                             |    <0.001 |
|               r_pipe                                                             |    <0.001 |
|             gen_master_slots[3].reg_slice_mi                                     |    <0.001 |
|               b_pipe                                                             |    <0.001 |
|               r_pipe                                                             |    <0.001 |
|             gen_master_slots[4].reg_slice_mi                                     |    <0.001 |
|               b_pipe                                                             |    <0.001 |
|               r_pipe                                                             |    <0.001 |
|             gen_slave_slots[0].gen_si_read.si_transactor_ar                      |     0.002 |
|               gen_multi_thread.arbiter_resp_inst                                 |    <0.001 |
|               gen_multi_thread.mux_resp_multi_thread                             |    <0.001 |
|             gen_slave_slots[0].gen_si_write.si_transactor_aw                     |     0.002 |
|               gen_multi_thread.arbiter_resp_inst                                 |    <0.001 |
|               gen_multi_thread.mux_resp_multi_thread                             |    <0.001 |
|             gen_slave_slots[0].gen_si_write.splitter_aw_si                       |    <0.001 |
|             gen_slave_slots[0].gen_si_write.wdata_router_w                       |    <0.001 |
|               wrouter_aw_fifo                                                    |    <0.001 |
|                 gen_srls[0].gen_rep[0].srl_nx1                                   |    <0.001 |
|                 gen_srls[0].gen_rep[1].srl_nx1                                   |    <0.001 |
|                 gen_srls[0].gen_rep[2].srl_nx1                                   |    <0.001 |
|             splitter_aw_mi                                                       |    <0.001 |
|     rst_ps7_0_100M                                                               |    <0.001 |
|       U0                                                                         |    <0.001 |
|         EXT_LPF                                                                  |    <0.001 |
|           ACTIVE_LOW_EXT.ACT_LO_EXT                                              |    <0.001 |
|         SEQ                                                                      |    <0.001 |
|           SEQ_COUNTER                                                            |    <0.001 |
|   u_ila_0                                                                        |     0.015 |
|     inst                                                                         |     0.015 |
|       ila_core_inst                                                              |     0.015 |
|         ila_trace_memory_inst                                                    |     0.009 |
|           SUBCORE_RAM_BLK_MEM_1.trace_block_memory                               |     0.009 |
|             inst_blk_mem_gen                                                     |     0.009 |
|               gnbram.gnativebmg.native_blk_mem_gen                               |     0.009 |
|                 valid.cstr                                                       |     0.009 |
|                   bindec_a.bindec_inst_a                                         |    <0.001 |
|                   has_mux_b.B                                                    |    <0.001 |
|                   ramloop[0].ram.r                                               |    <0.001 |
|                     prim_noinit.ram                                              |    <0.001 |
|                   ramloop[10].ram.r                                              |    <0.001 |
|                     prim_noinit.ram                                              |    <0.001 |
|                   ramloop[11].ram.r                                              |    <0.001 |
|                     prim_noinit.ram                                              |    <0.001 |
|                   ramloop[12].ram.r                                              |    <0.001 |
|                     prim_noinit.ram                                              |    <0.001 |
|                   ramloop[13].ram.r                                              |    <0.001 |
|                     prim_noinit.ram                                              |    <0.001 |
|                   ramloop[14].ram.r                                              |    <0.001 |
|                     prim_noinit.ram                                              |    <0.001 |
|                   ramloop[15].ram.r                                              |    <0.001 |
|                     prim_noinit.ram                                              |    <0.001 |
|                   ramloop[16].ram.r                                              |    <0.001 |
|                     prim_noinit.ram                                              |    <0.001 |
|                   ramloop[17].ram.r                                              |    <0.001 |
|                     prim_noinit.ram                                              |    <0.001 |
|                   ramloop[18].ram.r                                              |    <0.001 |
|                     prim_noinit.ram                                              |    <0.001 |
|                   ramloop[19].ram.r                                              |    <0.001 |
|                     prim_noinit.ram                                              |    <0.001 |
|                   ramloop[1].ram.r                                               |     0.001 |
|                     prim_noinit.ram                                              |     0.001 |
|                   ramloop[2].ram.r                                               |     0.001 |
|                     prim_noinit.ram                                              |     0.001 |
|                   ramloop[3].ram.r                                               |     0.001 |
|                     prim_noinit.ram                                              |     0.001 |
|                   ramloop[4].ram.r                                               |    <0.001 |
|                     prim_noinit.ram                                              |    <0.001 |
|                   ramloop[5].ram.r                                               |    <0.001 |
|                     prim_noinit.ram                                              |    <0.001 |
|                   ramloop[6].ram.r                                               |    <0.001 |
|                     prim_noinit.ram                                              |    <0.001 |
|                   ramloop[7].ram.r                                               |    <0.001 |
|                     prim_noinit.ram                                              |    <0.001 |
|                   ramloop[8].ram.r                                               |    <0.001 |
|                     prim_noinit.ram                                              |    <0.001 |
|                   ramloop[9].ram.r                                               |    <0.001 |
|                     prim_noinit.ram                                              |    <0.001 |
|         u_ila_cap_ctrl                                                           |     0.001 |
|           U_CDONE                                                                |    <0.001 |
|           U_NS0                                                                  |    <0.001 |
|           U_NS1                                                                  |    <0.001 |
|           u_cap_addrgen                                                          |     0.001 |
|             U_CMPRESET                                                           |    <0.001 |
|             u_cap_sample_counter                                                 |    <0.001 |
|               U_SCE                                                              |    <0.001 |
|               U_SCMPCE                                                           |    <0.001 |
|               U_SCRST                                                            |    <0.001 |
|               u_scnt_cmp                                                         |    <0.001 |
|                 allx_typeA_match_detection.ltlib_v1_0_0_allx_typeA_inst          |    <0.001 |
|                   DUT                                                            |    <0.001 |
|                     I_WHOLE_SLICE.G_SLICE_IDX[0].U_ALL_SRL_SLICE                 |    <0.001 |
|                       u_srlA                                                     |    <0.001 |
|                       u_srlB                                                     |    <0.001 |
|                       u_srlC                                                     |    <0.001 |
|                       u_srlD                                                     |    <0.001 |
|                     I_WHOLE_SLICE.G_SLICE_IDX[1].U_ALL_SRL_SLICE                 |    <0.001 |
|                       u_srlA                                                     |    <0.001 |
|                       u_srlB                                                     |    <0.001 |
|                       u_srlC                                                     |    <0.001 |
|                       u_srlD                                                     |    <0.001 |
|             u_cap_window_counter                                                 |    <0.001 |
|               U_WCE                                                              |    <0.001 |
|               U_WHCMPCE                                                          |    <0.001 |
|               U_WLCMPCE                                                          |    <0.001 |
|               u_wcnt_hcmp                                                        |    <0.001 |
|                 allx_typeA_match_detection.ltlib_v1_0_0_allx_typeA_inst          |    <0.001 |
|                   DUT                                                            |    <0.001 |
|                     I_WHOLE_SLICE.G_SLICE_IDX[0].U_ALL_SRL_SLICE                 |    <0.001 |
|                       u_srlA                                                     |    <0.001 |
|                       u_srlB                                                     |    <0.001 |
|                       u_srlC                                                     |    <0.001 |
|                       u_srlD                                                     |    <0.001 |
|                     I_WHOLE_SLICE.G_SLICE_IDX[1].U_ALL_SRL_SLICE                 |    <0.001 |
|                       u_srlA                                                     |    <0.001 |
|                       u_srlB                                                     |    <0.001 |
|                       u_srlC                                                     |    <0.001 |
|                       u_srlD                                                     |    <0.001 |
|               u_wcnt_lcmp                                                        |    <0.001 |
|                 allx_typeA_match_detection.ltlib_v1_0_0_allx_typeA_inst          |    <0.001 |
|                   DUT                                                            |    <0.001 |
|                     I_WHOLE_SLICE.G_SLICE_IDX[0].U_ALL_SRL_SLICE                 |    <0.001 |
|                       u_srlA                                                     |    <0.001 |
|                       u_srlB                                                     |    <0.001 |
|                       u_srlC                                                     |    <0.001 |
|                       u_srlD                                                     |    <0.001 |
|                     I_WHOLE_SLICE.G_SLICE_IDX[1].U_ALL_SRL_SLICE                 |    <0.001 |
|                       u_srlA                                                     |    <0.001 |
|                       u_srlB                                                     |    <0.001 |
|                       u_srlC                                                     |    <0.001 |
|                       u_srlD                                                     |    <0.001 |
|         u_ila_regs                                                               |     0.003 |
|           MU_SRL[0].mu_srl_reg                                                   |    <0.001 |
|           MU_SRL[1].mu_srl_reg                                                   |    <0.001 |
|           MU_SRL[2].mu_srl_reg                                                   |    <0.001 |
|           TC_SRL[0].tc_srl_reg                                                   |    <0.001 |
|           U_XSDB_SLAVE                                                           |    <0.001 |
|           reg_15                                                                 |    <0.001 |
|             I_EN_CTL_EQ1.U_CTL                                                   |    <0.001 |
|           reg_16                                                                 |    <0.001 |
|             I_EN_CTL_EQ1.U_CTL                                                   |    <0.001 |
|           reg_17                                                                 |    <0.001 |
|             I_EN_CTL_EQ1.U_CTL                                                   |    <0.001 |
|           reg_18                                                                 |    <0.001 |
|             I_EN_CTL_EQ1.U_CTL                                                   |    <0.001 |
|           reg_19                                                                 |    <0.001 |
|             I_EN_CTL_EQ1.U_CTL                                                   |    <0.001 |
|           reg_1a                                                                 |    <0.001 |
|             I_EN_CTL_EQ1.U_CTL                                                   |    <0.001 |
|           reg_6                                                                  |    <0.001 |
|             I_EN_CTL_EQ1.U_CTL                                                   |    <0.001 |
|           reg_7                                                                  |    <0.001 |
|             I_EN_CTL_EQ1.U_CTL                                                   |    <0.001 |
|           reg_8                                                                  |    <0.001 |
|             I_EN_STAT_EQ1.U_STAT                                                 |    <0.001 |
|           reg_80                                                                 |    <0.001 |
|             I_EN_CTL_EQ1.U_CTL                                                   |    <0.001 |
|           reg_81                                                                 |    <0.001 |
|             I_EN_CTL_EQ1.U_CTL                                                   |    <0.001 |
|           reg_82                                                                 |    <0.001 |
|             I_EN_CTL_EQ1.U_CTL                                                   |    <0.001 |
|           reg_83                                                                 |    <0.001 |
|             I_EN_CTL_EQ1.U_CTL                                                   |    <0.001 |
|           reg_84                                                                 |    <0.001 |
|             I_EN_CTL_EQ1.U_CTL                                                   |    <0.001 |
|           reg_85                                                                 |    <0.001 |
|             I_EN_CTL_EQ1.U_CTL                                                   |    <0.001 |
|           reg_887                                                                |    <0.001 |
|             I_EN_STAT_EQ1.U_STAT                                                 |    <0.001 |
|           reg_88d                                                                |    <0.001 |
|             I_EN_STAT_EQ1.U_STAT                                                 |    <0.001 |
|           reg_890                                                                |    <0.001 |
|             I_EN_STAT_EQ1.U_STAT                                                 |    <0.001 |
|           reg_9                                                                  |    <0.001 |
|             I_EN_STAT_EQ1.U_STAT                                                 |    <0.001 |
|           reg_srl_fff                                                            |    <0.001 |
|           reg_stream_ffd                                                         |    <0.001 |
|             I_EN_CTL_EQ1.U_CTL                                                   |    <0.001 |
|           reg_stream_ffe                                                         |    <0.001 |
|             I_EN_STAT_EQ1.U_STAT                                                 |    <0.001 |
|         u_ila_reset_ctrl                                                         |    <0.001 |
|           arm_detection_inst                                                     |    <0.001 |
|           asyncrounous_transfer.arm_in_transfer_inst                             |    <0.001 |
|           asyncrounous_transfer.arm_out_transfer_inst                            |    <0.001 |
|           asyncrounous_transfer.halt_in_transfer_inst                            |    <0.001 |
|           asyncrounous_transfer.halt_out_transfer_inst                           |    <0.001 |
|           halt_detection_inst                                                    |    <0.001 |
|         u_trig                                                                   |    <0.001 |
|           N_DDR_TC.N_DDR_TC_INST[0].U_TC                                         |    <0.001 |
|             allx_typeA_match_detection.ltlib_v1_0_0_allx_typeA_inst              |    <0.001 |
|               DUT                                                                |    <0.001 |
|                 I_WHOLE_SLICE.G_SLICE_IDX[0].U_ALL_SRL_SLICE                     |    <0.001 |
|                   u_srlA                                                         |    <0.001 |
|                   u_srlB                                                         |    <0.001 |
|                   u_srlC                                                         |    <0.001 |
|                   u_srlD                                                         |    <0.001 |
|           U_TM                                                                   |    <0.001 |
|             N_DDR_MODE.G_NMU[0].U_M                                              |    <0.001 |
|               allx_typeA_match_detection.ltlib_v1_0_0_allx_typeA_inst            |    <0.001 |
|                 DUT                                                              |    <0.001 |
|                   I_WHOLE_SLICE.G_SLICE_IDX[0].U_ALL_SRL_SLICE                   |    <0.001 |
|                     u_srlA                                                       |    <0.001 |
|                     u_srlB                                                       |    <0.001 |
|                     u_srlC                                                       |    <0.001 |
|                     u_srlD                                                       |    <0.001 |
|                   I_WHOLE_SLICE.G_SLICE_IDX[1].U_ALL_SRL_SLICE                   |    <0.001 |
|                     u_srlA                                                       |    <0.001 |
|                     u_srlB                                                       |    <0.001 |
|                     u_srlC                                                       |    <0.001 |
|                     u_srlD                                                       |    <0.001 |
|                   I_WHOLE_SLICE.G_SLICE_IDX[2].U_ALL_SRL_SLICE                   |    <0.001 |
|                     u_srlA                                                       |    <0.001 |
|                     u_srlB                                                       |    <0.001 |
|                     u_srlC                                                       |    <0.001 |
|                     u_srlD                                                       |    <0.001 |
|                   I_WHOLE_SLICE.G_SLICE_IDX[3].U_ALL_SRL_SLICE                   |    <0.001 |
|                     u_srlA                                                       |    <0.001 |
|                     u_srlB                                                       |    <0.001 |
|                     u_srlC                                                       |    <0.001 |
|                     u_srlD                                                       |    <0.001 |
|                   I_WHOLE_SLICE.G_SLICE_IDX[4].U_ALL_SRL_SLICE                   |    <0.001 |
|                     u_srlA                                                       |    <0.001 |
|                     u_srlB                                                       |    <0.001 |
|                     u_srlC                                                       |    <0.001 |
|                     u_srlD                                                       |    <0.001 |
|             N_DDR_MODE.G_NMU[1].U_M                                              |    <0.001 |
|               allx_typeA_match_detection.ltlib_v1_0_0_allx_typeA_inst            |    <0.001 |
|                 DUT                                                              |    <0.001 |
|                   I_WHOLE_SLICE.G_SLICE_IDX[0].U_ALL_SRL_SLICE                   |    <0.001 |
|                     u_srlA                                                       |    <0.001 |
|                     u_srlB                                                       |    <0.001 |
|                     u_srlC                                                       |    <0.001 |
|                     u_srlD                                                       |    <0.001 |
|             N_DDR_MODE.G_NMU[2].U_M                                              |    <0.001 |
|               allx_typeA_match_detection.ltlib_v1_0_0_allx_typeA_inst            |    <0.001 |
|                 DUT                                                              |    <0.001 |
|                   I_WHOLE_SLICE.G_SLICE_IDX[0].U_ALL_SRL_SLICE                   |    <0.001 |
|                     u_srlA                                                       |    <0.001 |
|                     u_srlB                                                       |    <0.001 |
|                     u_srlC                                                       |    <0.001 |
|                     u_srlD                                                       |    <0.001 |
|         xsdb_memory_read_inst                                                    |    <0.001 |
+----------------------------------------------------------------------------------+-----------+


