# compile verilog/system verilog design source files
verilog xil_defaultlib  "../../../../../../../../lmueller/TUM-LIS-lisnoc-be7579e/rtl/lisnoc_arb_prio_rr.v" --include "../../../../../../../../lmueller/TUM-LIS-lisnoc-be7579e/rtl" --include "../../../../../../../../lmueller/TUM-LIS-lisnoc-be7579e/rtl/lisnoc16" --include "../../../../../../../../lmueller/TUM-LIS-lisnoc-be7579e/rtl/dma" --include "../../../../../../../../lmueller/TUM-LIS-lisnoc-be7579e/rtl/lisnoc16/system_control" --include "../../../../../../../../lmueller/TUM-LIS-lisnoc-be7579e/rtl/lisnoc16/converter" --include "../../../../../../../../lmueller/TUM-LIS-lisnoc-be7579e/tbench/rtl/measure"
verilog xil_defaultlib  "../../../../../../../../lmueller/TUM-LIS-lisnoc-be7579e/rtl/lisnoc_arb_rr.v" --include "../../../../../../../../lmueller/TUM-LIS-lisnoc-be7579e/rtl" --include "../../../../../../../../lmueller/TUM-LIS-lisnoc-be7579e/rtl/lisnoc16" --include "../../../../../../../../lmueller/TUM-LIS-lisnoc-be7579e/rtl/dma" --include "../../../../../../../../lmueller/TUM-LIS-lisnoc-be7579e/rtl/lisnoc16/system_control" --include "../../../../../../../../lmueller/TUM-LIS-lisnoc-be7579e/rtl/lisnoc16/converter" --include "../../../../../../../../lmueller/TUM-LIS-lisnoc-be7579e/tbench/rtl/measure"
verilog xil_defaultlib  "../../../../../../../../lmueller/TUM-LIS-lisnoc-be7579e/rtl/router/lisnoc_router_input_route.v" --include "../../../../../../../../lmueller/TUM-LIS-lisnoc-be7579e/rtl" --include "../../../../../../../../lmueller/TUM-LIS-lisnoc-be7579e/rtl/lisnoc16" --include "../../../../../../../../lmueller/TUM-LIS-lisnoc-be7579e/rtl/dma" --include "../../../../../../../../lmueller/TUM-LIS-lisnoc-be7579e/rtl/lisnoc16/system_control" --include "../../../../../../../../lmueller/TUM-LIS-lisnoc-be7579e/rtl/lisnoc16/converter" --include "../../../../../../../../lmueller/TUM-LIS-lisnoc-be7579e/tbench/rtl/measure"
verilog xil_defaultlib  "../../../../../../../../lmueller/TUM-LIS-lisnoc-be7579e/rtl/router/lisnoc_fifo.v" --include "../../../../../../../../lmueller/TUM-LIS-lisnoc-be7579e/rtl" --include "../../../../../../../../lmueller/TUM-LIS-lisnoc-be7579e/rtl/lisnoc16" --include "../../../../../../../../lmueller/TUM-LIS-lisnoc-be7579e/rtl/dma" --include "../../../../../../../../lmueller/TUM-LIS-lisnoc-be7579e/rtl/lisnoc16/system_control" --include "../../../../../../../../lmueller/TUM-LIS-lisnoc-be7579e/rtl/lisnoc16/converter" --include "../../../../../../../../lmueller/TUM-LIS-lisnoc-be7579e/tbench/rtl/measure"
verilog xil_defaultlib  "../../../../../../../../lmueller/TUM-LIS-lisnoc-be7579e/rtl/router/lisnoc_router_output.v" --include "../../../../../../../../lmueller/TUM-LIS-lisnoc-be7579e/rtl" --include "../../../../../../../../lmueller/TUM-LIS-lisnoc-be7579e/rtl/lisnoc16" --include "../../../../../../../../lmueller/TUM-LIS-lisnoc-be7579e/rtl/dma" --include "../../../../../../../../lmueller/TUM-LIS-lisnoc-be7579e/rtl/lisnoc16/system_control" --include "../../../../../../../../lmueller/TUM-LIS-lisnoc-be7579e/rtl/lisnoc16/converter" --include "../../../../../../../../lmueller/TUM-LIS-lisnoc-be7579e/tbench/rtl/measure"
verilog xil_defaultlib  "../../../../../../../../lmueller/TUM-LIS-lisnoc-be7579e/rtl/router/lisnoc_router_input.v" --include "../../../../../../../../lmueller/TUM-LIS-lisnoc-be7579e/rtl" --include "../../../../../../../../lmueller/TUM-LIS-lisnoc-be7579e/rtl/lisnoc16" --include "../../../../../../../../lmueller/TUM-LIS-lisnoc-be7579e/rtl/dma" --include "../../../../../../../../lmueller/TUM-LIS-lisnoc-be7579e/rtl/lisnoc16/system_control" --include "../../../../../../../../lmueller/TUM-LIS-lisnoc-be7579e/rtl/lisnoc16/converter" --include "../../../../../../../../lmueller/TUM-LIS-lisnoc-be7579e/tbench/rtl/measure"
verilog xil_defaultlib  "../../../../../../../../lmueller/TUM-LIS-lisnoc-be7579e/rtl/router/lisnoc_router.v" --include "../../../../../../../../lmueller/TUM-LIS-lisnoc-be7579e/rtl" --include "../../../../../../../../lmueller/TUM-LIS-lisnoc-be7579e/rtl/lisnoc16" --include "../../../../../../../../lmueller/TUM-LIS-lisnoc-be7579e/rtl/dma" --include "../../../../../../../../lmueller/TUM-LIS-lisnoc-be7579e/rtl/lisnoc16/system_control" --include "../../../../../../../../lmueller/TUM-LIS-lisnoc-be7579e/rtl/lisnoc16/converter" --include "../../../../../../../../lmueller/TUM-LIS-lisnoc-be7579e/tbench/rtl/measure"
verilog xil_defaultlib  "../../../../../../../../lmueller/TUM-LIS-lisnoc-be7579e/rtl/router/lisnoc_router_2dgrid.v" --include "../../../../../../../../lmueller/TUM-LIS-lisnoc-be7579e/rtl" --include "../../../../../../../../lmueller/TUM-LIS-lisnoc-be7579e/rtl/lisnoc16" --include "../../../../../../../../lmueller/TUM-LIS-lisnoc-be7579e/rtl/dma" --include "../../../../../../../../lmueller/TUM-LIS-lisnoc-be7579e/rtl/lisnoc16/system_control" --include "../../../../../../../../lmueller/TUM-LIS-lisnoc-be7579e/rtl/lisnoc16/converter" --include "../../../../../../../../lmueller/TUM-LIS-lisnoc-be7579e/tbench/rtl/measure"
verilog xil_defaultlib  "../../../../../../../../lmueller/TUM-LIS-lisnoc-be7579e/rtl/infrastructure/lisnoc_vc_multiplexer.v" --include "../../../../../../../../lmueller/TUM-LIS-lisnoc-be7579e/rtl" --include "../../../../../../../../lmueller/TUM-LIS-lisnoc-be7579e/rtl/lisnoc16" --include "../../../../../../../../lmueller/TUM-LIS-lisnoc-be7579e/rtl/dma" --include "../../../../../../../../lmueller/TUM-LIS-lisnoc-be7579e/rtl/lisnoc16/system_control" --include "../../../../../../../../lmueller/TUM-LIS-lisnoc-be7579e/rtl/lisnoc16/converter" --include "../../../../../../../../lmueller/TUM-LIS-lisnoc-be7579e/tbench/rtl/measure"
verilog xil_defaultlib  "../../../../../../../../lmueller/TUM-LIS-lisnoc-be7579e/rtl/meshs/lisnoc_mesh2x2.v" --include "../../../../../../../../lmueller/TUM-LIS-lisnoc-be7579e/rtl" --include "../../../../../../../../lmueller/TUM-LIS-lisnoc-be7579e/rtl/lisnoc16" --include "../../../../../../../../lmueller/TUM-LIS-lisnoc-be7579e/rtl/dma" --include "../../../../../../../../lmueller/TUM-LIS-lisnoc-be7579e/rtl/lisnoc16/system_control" --include "../../../../../../../../lmueller/TUM-LIS-lisnoc-be7579e/rtl/lisnoc16/converter" --include "../../../../../../../../lmueller/TUM-LIS-lisnoc-be7579e/tbench/rtl/measure"
verilog xil_defaultlib  "../../../../../../../../lmueller/TUM-LIS-lisnoc-be7579e/rtl/infrastructure/lisnoc_vc_serializer.v" --include "../../../../../../../../lmueller/TUM-LIS-lisnoc-be7579e/rtl" --include "../../../../../../../../lmueller/TUM-LIS-lisnoc-be7579e/rtl/lisnoc16" --include "../../../../../../../../lmueller/TUM-LIS-lisnoc-be7579e/rtl/dma" --include "../../../../../../../../lmueller/TUM-LIS-lisnoc-be7579e/rtl/lisnoc16/system_control" --include "../../../../../../../../lmueller/TUM-LIS-lisnoc-be7579e/rtl/lisnoc16/converter" --include "../../../../../../../../lmueller/TUM-LIS-lisnoc-be7579e/tbench/rtl/measure"
verilog xil_defaultlib  "../../../../../../../../lmueller/TUM-LIS-lisnoc-be7579e/rtl/infrastructure/lisnoc_vc_deserializer.v" --include "../../../../../../../../lmueller/TUM-LIS-lisnoc-be7579e/rtl" --include "../../../../../../../../lmueller/TUM-LIS-lisnoc-be7579e/rtl/lisnoc16" --include "../../../../../../../../lmueller/TUM-LIS-lisnoc-be7579e/rtl/dma" --include "../../../../../../../../lmueller/TUM-LIS-lisnoc-be7579e/rtl/lisnoc16/system_control" --include "../../../../../../../../lmueller/TUM-LIS-lisnoc-be7579e/rtl/lisnoc16/converter" --include "../../../../../../../../lmueller/TUM-LIS-lisnoc-be7579e/tbench/rtl/measure"
verilog xil_defaultlib  "../../../LISNoC.srcs/sources_1/new/lisnoc-soc.v" --include "../../../../../../../../lmueller/TUM-LIS-lisnoc-be7579e/rtl" --include "../../../../../../../../lmueller/TUM-LIS-lisnoc-be7579e/rtl/lisnoc16" --include "../../../../../../../../lmueller/TUM-LIS-lisnoc-be7579e/rtl/dma" --include "../../../../../../../../lmueller/TUM-LIS-lisnoc-be7579e/rtl/lisnoc16/system_control" --include "../../../../../../../../lmueller/TUM-LIS-lisnoc-be7579e/rtl/lisnoc16/converter" --include "../../../../../../../../lmueller/TUM-LIS-lisnoc-be7579e/tbench/rtl/measure"
sv xil_defaultlib  "../../../LISNoC.srcs/sources_1/imports/mp_simple/lisnoc_mp_simple_wb.sv" --include "../../../../../../../../lmueller/TUM-LIS-lisnoc-be7579e/rtl" --include "../../../../../../../../lmueller/TUM-LIS-lisnoc-be7579e/rtl/lisnoc16" --include "../../../../../../../../lmueller/TUM-LIS-lisnoc-be7579e/rtl/dma" --include "../../../../../../../../lmueller/TUM-LIS-lisnoc-be7579e/rtl/lisnoc16/system_control" --include "../../../../../../../../lmueller/TUM-LIS-lisnoc-be7579e/rtl/lisnoc16/converter" --include "../../../../../../../../lmueller/TUM-LIS-lisnoc-be7579e/tbench/rtl/measure"
sv xil_defaultlib  "../../../LISNoC.srcs/sources_1/imports/mp_simple/lisnoc_mp_simple.sv" --include "../../../../../../../../lmueller/TUM-LIS-lisnoc-be7579e/rtl" --include "../../../../../../../../lmueller/TUM-LIS-lisnoc-be7579e/rtl/lisnoc16" --include "../../../../../../../../lmueller/TUM-LIS-lisnoc-be7579e/rtl/dma" --include "../../../../../../../../lmueller/TUM-LIS-lisnoc-be7579e/rtl/lisnoc16/system_control" --include "../../../../../../../../lmueller/TUM-LIS-lisnoc-be7579e/rtl/lisnoc16/converter" --include "../../../../../../../../lmueller/TUM-LIS-lisnoc-be7579e/tbench/rtl/measure"
sv xil_defaultlib  "../../../LISNoC.srcs/sources_1/imports/infrastructure/lisnoc_packet_buffer.sv" --include "../../../../../../../../lmueller/TUM-LIS-lisnoc-be7579e/rtl" --include "../../../../../../../../lmueller/TUM-LIS-lisnoc-be7579e/rtl/lisnoc16" --include "../../../../../../../../lmueller/TUM-LIS-lisnoc-be7579e/rtl/dma" --include "../../../../../../../../lmueller/TUM-LIS-lisnoc-be7579e/rtl/lisnoc16/system_control" --include "../../../../../../../../lmueller/TUM-LIS-lisnoc-be7579e/rtl/lisnoc16/converter" --include "../../../../../../../../lmueller/TUM-LIS-lisnoc-be7579e/tbench/rtl/measure"
sv xil_defaultlib  "../../../LISNoC.srcs/sources_1/imports/router/lisnoc_router_arbiter.sv" --include "../../../../../../../../lmueller/TUM-LIS-lisnoc-be7579e/rtl" --include "../../../../../../../../lmueller/TUM-LIS-lisnoc-be7579e/rtl/lisnoc16" --include "../../../../../../../../lmueller/TUM-LIS-lisnoc-be7579e/rtl/dma" --include "../../../../../../../../lmueller/TUM-LIS-lisnoc-be7579e/rtl/lisnoc16/system_control" --include "../../../../../../../../lmueller/TUM-LIS-lisnoc-be7579e/rtl/lisnoc16/converter" --include "../../../../../../../../lmueller/TUM-LIS-lisnoc-be7579e/tbench/rtl/measure"
sv xil_defaultlib  "../../../LISNoC.srcs/sources_1/imports/router/lisnoc_router_arbiter_prio.sv" --include "../../../../../../../../lmueller/TUM-LIS-lisnoc-be7579e/rtl" --include "../../../../../../../../lmueller/TUM-LIS-lisnoc-be7579e/rtl/lisnoc16" --include "../../../../../../../../lmueller/TUM-LIS-lisnoc-be7579e/rtl/dma" --include "../../../../../../../../lmueller/TUM-LIS-lisnoc-be7579e/rtl/lisnoc16/system_control" --include "../../../../../../../../lmueller/TUM-LIS-lisnoc-be7579e/rtl/lisnoc16/converter" --include "../../../../../../../../lmueller/TUM-LIS-lisnoc-be7579e/tbench/rtl/measure"
sv xil_defaultlib  "../../../LISNoC.srcs/sources_1/imports/router/lisnoc_router_output_arbiter.sv" --include "../../../../../../../../lmueller/TUM-LIS-lisnoc-be7579e/rtl" --include "../../../../../../../../lmueller/TUM-LIS-lisnoc-be7579e/rtl/lisnoc16" --include "../../../../../../../../lmueller/TUM-LIS-lisnoc-be7579e/rtl/dma" --include "../../../../../../../../lmueller/TUM-LIS-lisnoc-be7579e/rtl/lisnoc16/system_control" --include "../../../../../../../../lmueller/TUM-LIS-lisnoc-be7579e/rtl/lisnoc16/converter" --include "../../../../../../../../lmueller/TUM-LIS-lisnoc-be7579e/tbench/rtl/measure"
sv xil_defaultlib  "../../../../../../../../lmueller/TUM-LIS-lisnoc-be7579e/tbench/rtl/measure/lisnoclink_if.sv" --include "../../../../../../../../lmueller/TUM-LIS-lisnoc-be7579e/rtl" --include "../../../../../../../../lmueller/TUM-LIS-lisnoc-be7579e/rtl/lisnoc16" --include "../../../../../../../../lmueller/TUM-LIS-lisnoc-be7579e/rtl/dma" --include "../../../../../../../../lmueller/TUM-LIS-lisnoc-be7579e/rtl/lisnoc16/system_control" --include "../../../../../../../../lmueller/TUM-LIS-lisnoc-be7579e/rtl/lisnoc16/converter" --include "../../../../../../../../lmueller/TUM-LIS-lisnoc-be7579e/tbench/rtl/measure"
sv xil_defaultlib  "../../../../../../../../lmueller/TUM-LIS-lisnoc-be7579e/tbench/rtl/measure/mesh.sv" --include "../../../../../../../../lmueller/TUM-LIS-lisnoc-be7579e/rtl" --include "../../../../../../../../lmueller/TUM-LIS-lisnoc-be7579e/rtl/lisnoc16" --include "../../../../../../../../lmueller/TUM-LIS-lisnoc-be7579e/rtl/dma" --include "../../../../../../../../lmueller/TUM-LIS-lisnoc-be7579e/rtl/lisnoc16/system_control" --include "../../../../../../../../lmueller/TUM-LIS-lisnoc-be7579e/rtl/lisnoc16/converter" --include "../../../../../../../../lmueller/TUM-LIS-lisnoc-be7579e/tbench/rtl/measure"
verilog xil_defaultlib  "../../../LISNoC.srcs/sim_1/new/tb_lisnoc.v" --include "../../../../../../../../lmueller/TUM-LIS-lisnoc-be7579e/rtl" --include "../../../../../../../../lmueller/TUM-LIS-lisnoc-be7579e/rtl/lisnoc16" --include "../../../../../../../../lmueller/TUM-LIS-lisnoc-be7579e/rtl/dma" --include "../../../../../../../../lmueller/TUM-LIS-lisnoc-be7579e/rtl/lisnoc16/system_control" --include "../../../../../../../../lmueller/TUM-LIS-lisnoc-be7579e/rtl/lisnoc16/converter" --include "../../../../../../../../lmueller/TUM-LIS-lisnoc-be7579e/tbench/rtl/measure"
verilog xil_defaultlib  "../../../LISNoC.srcs/sim_1/imports/sim/axi_wb_master.v" --include "../../../../../../../../lmueller/TUM-LIS-lisnoc-be7579e/rtl" --include "../../../../../../../../lmueller/TUM-LIS-lisnoc-be7579e/rtl/lisnoc16" --include "../../../../../../../../lmueller/TUM-LIS-lisnoc-be7579e/rtl/dma" --include "../../../../../../../../lmueller/TUM-LIS-lisnoc-be7579e/rtl/lisnoc16/system_control" --include "../../../../../../../../lmueller/TUM-LIS-lisnoc-be7579e/rtl/lisnoc16/converter" --include "../../../../../../../../lmueller/TUM-LIS-lisnoc-be7579e/tbench/rtl/measure"

# compile glbl module
verilog xil_defaultlib "glbl.v"

# Do not sort compile order
nosort
