INFO: [VRFC 10-2263] Analyzing Verilog file "/home/jhippe/repos/lisnoc/code/lisnoc-ni-vc-support/lisnoc-ni-vc-support.srcs/sources_1/imports/code/lisnoc-laura-old/LISNoC/LISNoC.srcs/sources_1/imports/rtl/lisnoc_arb_prio_rr.v" into library xil_defaultlib
INFO: [VRFC 10-311] analyzing module lisnoc_arb_prio_rr
INFO: [VRFC 10-2263] Analyzing Verilog file "/home/jhippe/repos/lisnoc/code/lisnoc-ni-vc-support/lisnoc-ni-vc-support.srcs/sources_1/imports/code/lisnoc-laura-old/LISNoC/LISNoC.srcs/sources_1/imports/rtl/lisnoc_arb_rr.v" into library xil_defaultlib
INFO: [VRFC 10-311] analyzing module lisnoc_arb_rr
INFO: [VRFC 10-2263] Analyzing SystemVerilog file "/home/jhippe/repos/lisnoc/code/lisnoc-ni-vc-support/lisnoc-ni-vc-support.srcs/sources_1/imports/code/lisnoc-laura-old/LISNoC/LISNoC.srcs/sources_1/imports/router/lisnoc_router_output_arbiter.sv" into library xil_defaultlib
INFO: [VRFC 10-311] analyzing module lisnoc_router_output_arbiter
INFO: [VRFC 10-2263] Analyzing SystemVerilog file "/home/jhippe/repos/lisnoc/code/lisnoc-ni-vc-support/lisnoc-ni-vc-support.srcs/sources_1/imports/code/lisnoc-laura-old/LISNoC/LISNoC.srcs/sources_1/imports/router/lisnoc_router_arbiter.sv" into library xil_defaultlib
INFO: [VRFC 10-311] analyzing module lisnoc_router_arbiter
INFO: [VRFC 10-2263] Analyzing SystemVerilog file "/home/jhippe/repos/lisnoc/code/lisnoc-ni-vc-support/lisnoc-ni-vc-support.srcs/sources_1/imports/code/lisnoc-laura-old/LISNoC/LISNoC.srcs/sources_1/imports/router/lisnoc_router_arbiter_prio.sv" into library xil_defaultlib
INFO: [VRFC 10-311] analyzing module lisnoc_router_arbiter_prio
INFO: [VRFC 10-2263] Analyzing Verilog file "/home/jhippe/repos/lisnoc/code/lisnoc-ni-vc-support/lisnoc-ni-vc-support.srcs/sources_1/imports/code/lisnoc-laura-old/LISNoC/LISNoC.srcs/sources_1/imports/rtl/router/lisnoc_fifo.v" into library xil_defaultlib
INFO: [VRFC 10-311] analyzing module lisnoc_fifo
INFO: [VRFC 10-2263] Analyzing Verilog file "/home/jhippe/repos/lisnoc/code/lisnoc-ni-vc-support/lisnoc-ni-vc-support.srcs/sources_1/imports/code/lisnoc-laura-old/LISNoC/LISNoC.srcs/sources_1/imports/rtl/router/lisnoc_router_input_route.v" into library xil_defaultlib
INFO: [VRFC 10-311] analyzing module lisnoc_router_input_route
INFO: [VRFC 10-2263] Analyzing Verilog file "/home/jhippe/repos/lisnoc/code/lisnoc-ni-vc-support/lisnoc-ni-vc-support.srcs/sources_1/imports/code/lisnoc-laura-old/LISNoC/LISNoC.srcs/sources_1/imports/rtl/router/lisnoc_router_output.v" into library xil_defaultlib
INFO: [VRFC 10-311] analyzing module lisnoc_router_output
INFO: [VRFC 10-2263] Analyzing Verilog file "/home/jhippe/repos/lisnoc/code/lisnoc-ni-vc-support/lisnoc-ni-vc-support.srcs/sources_1/imports/code/lisnoc-laura-old/LISNoC/LISNoC.srcs/sources_1/imports/rtl/router/lisnoc_router_input.v" into library xil_defaultlib
INFO: [VRFC 10-311] analyzing module lisnoc_router_input
INFO: [VRFC 10-2263] Analyzing Verilog file "/home/jhippe/repos/lisnoc/code/lisnoc-ni-vc-support/lisnoc-ni-vc-support.srcs/sources_1/new/flits_to_stream.v" into library xil_defaultlib
INFO: [VRFC 10-311] analyzing module flits_to_stream
INFO: [VRFC 10-2263] Analyzing Verilog file "/home/jhippe/repos/lisnoc/code/lisnoc-ni-vc-support/lisnoc-ni-vc-support.srcs/sources_1/new/stream_to_flits.v" into library xil_defaultlib
INFO: [VRFC 10-311] analyzing module stream_to_flits
INFO: [VRFC 10-2263] Analyzing Verilog file "/home/jhippe/repos/lisnoc/code/lisnoc-ni-vc-support/lisnoc-ni-vc-support.srcs/sources_1/imports/code/lisnoc-laura-old/LISNoC/LISNoC.srcs/sources_1/imports/rtl/router/lisnoc_router.v" into library xil_defaultlib
INFO: [VRFC 10-311] analyzing module lisnoc_router
INFO: [VRFC 10-2263] Analyzing Verilog file "/home/jhippe/repos/lisnoc/code/lisnoc-ni-vc-support/lisnoc-ni-vc-support.srcs/sources_1/new/output_virtualiser.v" into library xil_defaultlib
INFO: [VRFC 10-311] analyzing module output_virtualiser
WARNING: [VRFC 10-2021] parameter declaration is not allowed here in this mode of verilog [/home/jhippe/repos/lisnoc/code/lisnoc-ni-vc-support/lisnoc-ni-vc-support.srcs/sources_1/new/output_virtualiser.v:156]
INFO: [VRFC 10-2263] Analyzing Verilog file "/home/jhippe/repos/lisnoc/code/lisnoc-ni-vc-support/lisnoc-ni-vc-support.srcs/sources_1/new/input_virtualiser.v" into library xil_defaultlib
INFO: [VRFC 10-311] analyzing module input_virtualiser
INFO: [VRFC 10-2263] Analyzing Verilog file "/home/jhippe/repos/lisnoc/code/lisnoc-ni-vc-support/lisnoc-ni-vc-support.srcs/sources_1/imports/hdl/lisnoc_axi_slave_v1_0_S00_AXI.v" into library xil_defaultlib
INFO: [VRFC 10-311] analyzing module lisnoc_axi_slave_v1_0_S00_AXI
INFO: [VRFC 10-2263] Analyzing Verilog file "/home/jhippe/repos/lisnoc/code/lisnoc-ni-vc-support/lisnoc-ni-vc-support.srcs/sources_1/imports/code/lisnoc-laura-old/LISNoC/LISNoC.srcs/sources_1/imports/rtl/router/lisnoc_router_2dgrid.v" into library xil_defaultlib
INFO: [VRFC 10-311] analyzing module lisnoc_router_2dgrid
INFO: [VRFC 10-2263] Analyzing Verilog file "/home/jhippe/repos/lisnoc/code/lisnoc-ni-vc-support/lisnoc-ni-vc-support.srcs/sources_1/imports/new/lisnoc_mp_interface.v" into library xil_defaultlib
INFO: [VRFC 10-311] analyzing module lisnoc_mp_interface
INFO: [VRFC 10-2263] Analyzing Verilog file "/home/jhippe/repos/lisnoc/code/lisnoc-ni-vc-support/lisnoc-ni-vc-support.srcs/sources_1/imports/meshs/lisnoc_mesh2x2.v" into library xil_defaultlib
INFO: [VRFC 10-311] analyzing module lisnoc_mesh2x2
INFO: [VRFC 10-2263] Analyzing Verilog file "/home/jhippe/repos/lisnoc/code/lisnoc-ni-vc-support/lisnoc-ni-vc-support.srcs/sources_1/new/lisnoc_probe.v" into library xil_defaultlib
INFO: [VRFC 10-311] analyzing module lisnoc_probe
INFO: [VRFC 10-2263] Analyzing Verilog file "/home/jhippe/repos/lisnoc/code/lisnoc-ni-vc-support/lisnoc-ni-vc-support.srcs/sources_1/imports/hdl/axi_master_for_testing_v1_0_M00_AXI.v" into library xil_defaultlib
INFO: [VRFC 10-311] analyzing module axi_master_for_testing_v1_0_M00_AXI
INFO: [VRFC 10-2263] Analyzing Verilog file "/home/jhippe/repos/lisnoc/code/lisnoc-ni-vc-support/lisnoc-ni-vc-support.srcs/sources_1/new/NOC_AXI_testmodule.v" into library xil_defaultlib
INFO: [VRFC 10-311] analyzing module NOC_AXI_testmodule
INFO: [VRFC 10-2263] Analyzing Verilog file "/home/jhippe/repos/lisnoc/code/lisnoc-ni-vc-support/lisnoc-ni-vc-support.srcs/sim_1/new/td_NOC_AXI_testmodule.v" into library xil_defaultlib
INFO: [VRFC 10-311] analyzing module td_NOC_AXI_testmodule
WARNING: [VRFC 10-2019] loop variable declaration is not allowed in this mode of verilog [/home/jhippe/repos/lisnoc/code/lisnoc-ni-vc-support/lisnoc-ni-vc-support.srcs/sim_1/new/td_NOC_AXI_testmodule.v:465]
WARNING: [VRFC 10-2019] loop variable declaration is not allowed in this mode of verilog [/home/jhippe/repos/lisnoc/code/lisnoc-ni-vc-support/lisnoc-ni-vc-support.srcs/sim_1/new/td_NOC_AXI_testmodule.v:551]
INFO: [VRFC 10-2458] undeclared symbol m00_axi_awregion, assumed default net type wire [/home/jhippe/repos/lisnoc/code/lisnoc-ni-vc-support/lisnoc-ni-vc-support.srcs/sim_1/new/td_NOC_AXI_testmodule.v:695]
INFO: [VRFC 10-2458] undeclared symbol m00_axi_arregion, assumed default net type wire [/home/jhippe/repos/lisnoc/code/lisnoc-ni-vc-support/lisnoc-ni-vc-support.srcs/sim_1/new/td_NOC_AXI_testmodule.v:719]
INFO: [VRFC 10-2458] undeclared symbol m01_axi_awregion, assumed default net type wire [/home/jhippe/repos/lisnoc/code/lisnoc-ni-vc-support/lisnoc-ni-vc-support.srcs/sim_1/new/td_NOC_AXI_testmodule.v:742]
INFO: [VRFC 10-2458] undeclared symbol m01_axi_arregion, assumed default net type wire [/home/jhippe/repos/lisnoc/code/lisnoc-ni-vc-support/lisnoc-ni-vc-support.srcs/sim_1/new/td_NOC_AXI_testmodule.v:766]
INFO: [VRFC 10-2458] undeclared symbol m02_axi_awregion, assumed default net type wire [/home/jhippe/repos/lisnoc/code/lisnoc-ni-vc-support/lisnoc-ni-vc-support.srcs/sim_1/new/td_NOC_AXI_testmodule.v:789]
INFO: [VRFC 10-2458] undeclared symbol m02_axi_arregion, assumed default net type wire [/home/jhippe/repos/lisnoc/code/lisnoc-ni-vc-support/lisnoc-ni-vc-support.srcs/sim_1/new/td_NOC_AXI_testmodule.v:813]
INFO: [VRFC 10-2458] undeclared symbol m03_axi_awregion, assumed default net type wire [/home/jhippe/repos/lisnoc/code/lisnoc-ni-vc-support/lisnoc-ni-vc-support.srcs/sim_1/new/td_NOC_AXI_testmodule.v:836]
INFO: [VRFC 10-2458] undeclared symbol m03_axi_arregion, assumed default net type wire [/home/jhippe/repos/lisnoc/code/lisnoc-ni-vc-support/lisnoc-ni-vc-support.srcs/sim_1/new/td_NOC_AXI_testmodule.v:860]
INFO: [VRFC 10-2263] Analyzing Verilog file "/home/jhippe/repos/lisnoc/code/lisnoc-ni-vc-support/lisnoc-ni-vc-support.sim/sim_1/behav/glbl.v" into library xil_defaultlib
INFO: [VRFC 10-311] analyzing module glbl
