# compile verilog/system verilog design source files
verilog xil_defaultlib  "../../../lisnoc-ni-vc-support.srcs/sources_1/imports/code/lisnoc-laura-old/LISNoC/LISNoC.srcs/sources_1/imports/rtl/lisnoc_arb_prio_rr.v" --include "../../../lisnoc-ni-vc-support.srcs/sources_1/imports/rtl" --include "../../../lisnoc-ni-vc-support.srcs/sources_1/new" --include "../../../lisnoc-ni-vc-support.srcs/sources_1/imports/code/lisnoc-laura-old/LISNoC/LISNoC.srcs/sources_1/imports/rtl/lisnoc16/converter" --include "../../../lisnoc-ni-vc-support.srcs/sources_1/imports/code/lisnoc-laura-old/LISNoC/LISNoC.srcs/sources_1/imports/rtl/lisnoc16/system_control" --include "../../../lisnoc-ni-vc-support.srcs/sources_1/imports/code/lisnoc-laura-old/LISNoC/LISNoC.srcs/sources_1/imports/rtl/lisnoc16" --include "../../../lisnoc-ni-vc-support.srcs/sources_1/imports/code/lisnoc-laura-old/LISNoC/LISNoC.srcs/sources_1/imports/rtl" --include "../../../lisnoc-ni-vc-support.srcs/sources_1/imports/code/lisnoc-laura-old/LISNoC/LISNoC.srcs/sources_1/imports/rtl/dma"
verilog xil_defaultlib  "../../../lisnoc-ni-vc-support.srcs/sources_1/imports/code/lisnoc-laura-old/LISNoC/LISNoC.srcs/sources_1/imports/rtl/lisnoc_arb_rr.v" --include "../../../lisnoc-ni-vc-support.srcs/sources_1/imports/rtl" --include "../../../lisnoc-ni-vc-support.srcs/sources_1/new" --include "../../../lisnoc-ni-vc-support.srcs/sources_1/imports/code/lisnoc-laura-old/LISNoC/LISNoC.srcs/sources_1/imports/rtl/lisnoc16/converter" --include "../../../lisnoc-ni-vc-support.srcs/sources_1/imports/code/lisnoc-laura-old/LISNoC/LISNoC.srcs/sources_1/imports/rtl/lisnoc16/system_control" --include "../../../lisnoc-ni-vc-support.srcs/sources_1/imports/code/lisnoc-laura-old/LISNoC/LISNoC.srcs/sources_1/imports/rtl/lisnoc16" --include "../../../lisnoc-ni-vc-support.srcs/sources_1/imports/code/lisnoc-laura-old/LISNoC/LISNoC.srcs/sources_1/imports/rtl" --include "../../../lisnoc-ni-vc-support.srcs/sources_1/imports/code/lisnoc-laura-old/LISNoC/LISNoC.srcs/sources_1/imports/rtl/dma"
sv xil_defaultlib  "../../../lisnoc-ni-vc-support.srcs/sources_1/imports/code/lisnoc-laura-old/LISNoC/LISNoC.srcs/sources_1/imports/router/lisnoc_router_output_arbiter.sv" --include "../../../lisnoc-ni-vc-support.srcs/sources_1/imports/rtl" --include "../../../lisnoc-ni-vc-support.srcs/sources_1/new" --include "../../../lisnoc-ni-vc-support.srcs/sources_1/imports/code/lisnoc-laura-old/LISNoC/LISNoC.srcs/sources_1/imports/rtl/lisnoc16/converter" --include "../../../lisnoc-ni-vc-support.srcs/sources_1/imports/code/lisnoc-laura-old/LISNoC/LISNoC.srcs/sources_1/imports/rtl/lisnoc16/system_control" --include "../../../lisnoc-ni-vc-support.srcs/sources_1/imports/code/lisnoc-laura-old/LISNoC/LISNoC.srcs/sources_1/imports/rtl/lisnoc16" --include "../../../lisnoc-ni-vc-support.srcs/sources_1/imports/code/lisnoc-laura-old/LISNoC/LISNoC.srcs/sources_1/imports/rtl" --include "../../../lisnoc-ni-vc-support.srcs/sources_1/imports/code/lisnoc-laura-old/LISNoC/LISNoC.srcs/sources_1/imports/rtl/dma"
sv xil_defaultlib  "../../../lisnoc-ni-vc-support.srcs/sources_1/imports/code/lisnoc-laura-old/LISNoC/LISNoC.srcs/sources_1/imports/router/lisnoc_router_arbiter.sv" --include "../../../lisnoc-ni-vc-support.srcs/sources_1/imports/rtl" --include "../../../lisnoc-ni-vc-support.srcs/sources_1/new" --include "../../../lisnoc-ni-vc-support.srcs/sources_1/imports/code/lisnoc-laura-old/LISNoC/LISNoC.srcs/sources_1/imports/rtl/lisnoc16/converter" --include "../../../lisnoc-ni-vc-support.srcs/sources_1/imports/code/lisnoc-laura-old/LISNoC/LISNoC.srcs/sources_1/imports/rtl/lisnoc16/system_control" --include "../../../lisnoc-ni-vc-support.srcs/sources_1/imports/code/lisnoc-laura-old/LISNoC/LISNoC.srcs/sources_1/imports/rtl/lisnoc16" --include "../../../lisnoc-ni-vc-support.srcs/sources_1/imports/code/lisnoc-laura-old/LISNoC/LISNoC.srcs/sources_1/imports/rtl" --include "../../../lisnoc-ni-vc-support.srcs/sources_1/imports/code/lisnoc-laura-old/LISNoC/LISNoC.srcs/sources_1/imports/rtl/dma"
sv xil_defaultlib  "../../../lisnoc-ni-vc-support.srcs/sources_1/imports/code/lisnoc-laura-old/LISNoC/LISNoC.srcs/sources_1/imports/router/lisnoc_router_arbiter_prio.sv" --include "../../../lisnoc-ni-vc-support.srcs/sources_1/imports/rtl" --include "../../../lisnoc-ni-vc-support.srcs/sources_1/new" --include "../../../lisnoc-ni-vc-support.srcs/sources_1/imports/code/lisnoc-laura-old/LISNoC/LISNoC.srcs/sources_1/imports/rtl/lisnoc16/converter" --include "../../../lisnoc-ni-vc-support.srcs/sources_1/imports/code/lisnoc-laura-old/LISNoC/LISNoC.srcs/sources_1/imports/rtl/lisnoc16/system_control" --include "../../../lisnoc-ni-vc-support.srcs/sources_1/imports/code/lisnoc-laura-old/LISNoC/LISNoC.srcs/sources_1/imports/rtl/lisnoc16" --include "../../../lisnoc-ni-vc-support.srcs/sources_1/imports/code/lisnoc-laura-old/LISNoC/LISNoC.srcs/sources_1/imports/rtl" --include "../../../lisnoc-ni-vc-support.srcs/sources_1/imports/code/lisnoc-laura-old/LISNoC/LISNoC.srcs/sources_1/imports/rtl/dma"
verilog xil_defaultlib  "../../../lisnoc-ni-vc-support.srcs/sources_1/imports/code/lisnoc-laura-old/LISNoC/LISNoC.srcs/sources_1/imports/rtl/router/lisnoc_fifo.v" --include "../../../lisnoc-ni-vc-support.srcs/sources_1/imports/rtl" --include "../../../lisnoc-ni-vc-support.srcs/sources_1/new" --include "../../../lisnoc-ni-vc-support.srcs/sources_1/imports/code/lisnoc-laura-old/LISNoC/LISNoC.srcs/sources_1/imports/rtl/lisnoc16/converter" --include "../../../lisnoc-ni-vc-support.srcs/sources_1/imports/code/lisnoc-laura-old/LISNoC/LISNoC.srcs/sources_1/imports/rtl/lisnoc16/system_control" --include "../../../lisnoc-ni-vc-support.srcs/sources_1/imports/code/lisnoc-laura-old/LISNoC/LISNoC.srcs/sources_1/imports/rtl/lisnoc16" --include "../../../lisnoc-ni-vc-support.srcs/sources_1/imports/code/lisnoc-laura-old/LISNoC/LISNoC.srcs/sources_1/imports/rtl" --include "../../../lisnoc-ni-vc-support.srcs/sources_1/imports/code/lisnoc-laura-old/LISNoC/LISNoC.srcs/sources_1/imports/rtl/dma"
verilog xil_defaultlib  "../../../lisnoc-ni-vc-support.srcs/sources_1/imports/code/lisnoc-laura-old/LISNoC/LISNoC.srcs/sources_1/imports/rtl/router/lisnoc_router_input_route.v" --include "../../../lisnoc-ni-vc-support.srcs/sources_1/imports/rtl" --include "../../../lisnoc-ni-vc-support.srcs/sources_1/new" --include "../../../lisnoc-ni-vc-support.srcs/sources_1/imports/code/lisnoc-laura-old/LISNoC/LISNoC.srcs/sources_1/imports/rtl/lisnoc16/converter" --include "../../../lisnoc-ni-vc-support.srcs/sources_1/imports/code/lisnoc-laura-old/LISNoC/LISNoC.srcs/sources_1/imports/rtl/lisnoc16/system_control" --include "../../../lisnoc-ni-vc-support.srcs/sources_1/imports/code/lisnoc-laura-old/LISNoC/LISNoC.srcs/sources_1/imports/rtl/lisnoc16" --include "../../../lisnoc-ni-vc-support.srcs/sources_1/imports/code/lisnoc-laura-old/LISNoC/LISNoC.srcs/sources_1/imports/rtl" --include "../../../lisnoc-ni-vc-support.srcs/sources_1/imports/code/lisnoc-laura-old/LISNoC/LISNoC.srcs/sources_1/imports/rtl/dma"
verilog xil_defaultlib  "../../../lisnoc-ni-vc-support.srcs/sources_1/imports/code/lisnoc-laura-old/LISNoC/LISNoC.srcs/sources_1/imports/rtl/router/lisnoc_router_output.v" --include "../../../lisnoc-ni-vc-support.srcs/sources_1/imports/rtl" --include "../../../lisnoc-ni-vc-support.srcs/sources_1/new" --include "../../../lisnoc-ni-vc-support.srcs/sources_1/imports/code/lisnoc-laura-old/LISNoC/LISNoC.srcs/sources_1/imports/rtl/lisnoc16/converter" --include "../../../lisnoc-ni-vc-support.srcs/sources_1/imports/code/lisnoc-laura-old/LISNoC/LISNoC.srcs/sources_1/imports/rtl/lisnoc16/system_control" --include "../../../lisnoc-ni-vc-support.srcs/sources_1/imports/code/lisnoc-laura-old/LISNoC/LISNoC.srcs/sources_1/imports/rtl/lisnoc16" --include "../../../lisnoc-ni-vc-support.srcs/sources_1/imports/code/lisnoc-laura-old/LISNoC/LISNoC.srcs/sources_1/imports/rtl" --include "../../../lisnoc-ni-vc-support.srcs/sources_1/imports/code/lisnoc-laura-old/LISNoC/LISNoC.srcs/sources_1/imports/rtl/dma"
verilog xil_defaultlib  "../../../lisnoc-ni-vc-support.srcs/sources_1/imports/code/lisnoc-laura-old/LISNoC/LISNoC.srcs/sources_1/imports/rtl/router/lisnoc_router_input.v" --include "../../../lisnoc-ni-vc-support.srcs/sources_1/imports/rtl" --include "../../../lisnoc-ni-vc-support.srcs/sources_1/new" --include "../../../lisnoc-ni-vc-support.srcs/sources_1/imports/code/lisnoc-laura-old/LISNoC/LISNoC.srcs/sources_1/imports/rtl/lisnoc16/converter" --include "../../../lisnoc-ni-vc-support.srcs/sources_1/imports/code/lisnoc-laura-old/LISNoC/LISNoC.srcs/sources_1/imports/rtl/lisnoc16/system_control" --include "../../../lisnoc-ni-vc-support.srcs/sources_1/imports/code/lisnoc-laura-old/LISNoC/LISNoC.srcs/sources_1/imports/rtl/lisnoc16" --include "../../../lisnoc-ni-vc-support.srcs/sources_1/imports/code/lisnoc-laura-old/LISNoC/LISNoC.srcs/sources_1/imports/rtl" --include "../../../lisnoc-ni-vc-support.srcs/sources_1/imports/code/lisnoc-laura-old/LISNoC/LISNoC.srcs/sources_1/imports/rtl/dma"
verilog xil_defaultlib  "../../../lisnoc-ni-vc-support.srcs/sources_1/new/flits_to_stream.v" --include "../../../lisnoc-ni-vc-support.srcs/sources_1/imports/rtl" --include "../../../lisnoc-ni-vc-support.srcs/sources_1/new" --include "../../../lisnoc-ni-vc-support.srcs/sources_1/imports/code/lisnoc-laura-old/LISNoC/LISNoC.srcs/sources_1/imports/rtl/lisnoc16/converter" --include "../../../lisnoc-ni-vc-support.srcs/sources_1/imports/code/lisnoc-laura-old/LISNoC/LISNoC.srcs/sources_1/imports/rtl/lisnoc16/system_control" --include "../../../lisnoc-ni-vc-support.srcs/sources_1/imports/code/lisnoc-laura-old/LISNoC/LISNoC.srcs/sources_1/imports/rtl/lisnoc16" --include "../../../lisnoc-ni-vc-support.srcs/sources_1/imports/code/lisnoc-laura-old/LISNoC/LISNoC.srcs/sources_1/imports/rtl" --include "../../../lisnoc-ni-vc-support.srcs/sources_1/imports/code/lisnoc-laura-old/LISNoC/LISNoC.srcs/sources_1/imports/rtl/dma"
verilog xil_defaultlib  "../../../lisnoc-ni-vc-support.srcs/sources_1/new/stream_to_flits.v" --include "../../../lisnoc-ni-vc-support.srcs/sources_1/imports/rtl" --include "../../../lisnoc-ni-vc-support.srcs/sources_1/new" --include "../../../lisnoc-ni-vc-support.srcs/sources_1/imports/code/lisnoc-laura-old/LISNoC/LISNoC.srcs/sources_1/imports/rtl/lisnoc16/converter" --include "../../../lisnoc-ni-vc-support.srcs/sources_1/imports/code/lisnoc-laura-old/LISNoC/LISNoC.srcs/sources_1/imports/rtl/lisnoc16/system_control" --include "../../../lisnoc-ni-vc-support.srcs/sources_1/imports/code/lisnoc-laura-old/LISNoC/LISNoC.srcs/sources_1/imports/rtl/lisnoc16" --include "../../../lisnoc-ni-vc-support.srcs/sources_1/imports/code/lisnoc-laura-old/LISNoC/LISNoC.srcs/sources_1/imports/rtl" --include "../../../lisnoc-ni-vc-support.srcs/sources_1/imports/code/lisnoc-laura-old/LISNoC/LISNoC.srcs/sources_1/imports/rtl/dma"
verilog xil_defaultlib  "../../../lisnoc-ni-vc-support.srcs/sources_1/imports/code/lisnoc-laura-old/LISNoC/LISNoC.srcs/sources_1/imports/rtl/router/lisnoc_router.v" --include "../../../lisnoc-ni-vc-support.srcs/sources_1/imports/rtl" --include "../../../lisnoc-ni-vc-support.srcs/sources_1/new" --include "../../../lisnoc-ni-vc-support.srcs/sources_1/imports/code/lisnoc-laura-old/LISNoC/LISNoC.srcs/sources_1/imports/rtl/lisnoc16/converter" --include "../../../lisnoc-ni-vc-support.srcs/sources_1/imports/code/lisnoc-laura-old/LISNoC/LISNoC.srcs/sources_1/imports/rtl/lisnoc16/system_control" --include "../../../lisnoc-ni-vc-support.srcs/sources_1/imports/code/lisnoc-laura-old/LISNoC/LISNoC.srcs/sources_1/imports/rtl/lisnoc16" --include "../../../lisnoc-ni-vc-support.srcs/sources_1/imports/code/lisnoc-laura-old/LISNoC/LISNoC.srcs/sources_1/imports/rtl" --include "../../../lisnoc-ni-vc-support.srcs/sources_1/imports/code/lisnoc-laura-old/LISNoC/LISNoC.srcs/sources_1/imports/rtl/dma"
verilog xil_defaultlib  "../../../lisnoc-ni-vc-support.srcs/sources_1/new/output_virtualiser.v" --include "../../../lisnoc-ni-vc-support.srcs/sources_1/imports/rtl" --include "../../../lisnoc-ni-vc-support.srcs/sources_1/new" --include "../../../lisnoc-ni-vc-support.srcs/sources_1/imports/code/lisnoc-laura-old/LISNoC/LISNoC.srcs/sources_1/imports/rtl/lisnoc16/converter" --include "../../../lisnoc-ni-vc-support.srcs/sources_1/imports/code/lisnoc-laura-old/LISNoC/LISNoC.srcs/sources_1/imports/rtl/lisnoc16/system_control" --include "../../../lisnoc-ni-vc-support.srcs/sources_1/imports/code/lisnoc-laura-old/LISNoC/LISNoC.srcs/sources_1/imports/rtl/lisnoc16" --include "../../../lisnoc-ni-vc-support.srcs/sources_1/imports/code/lisnoc-laura-old/LISNoC/LISNoC.srcs/sources_1/imports/rtl" --include "../../../lisnoc-ni-vc-support.srcs/sources_1/imports/code/lisnoc-laura-old/LISNoC/LISNoC.srcs/sources_1/imports/rtl/dma"
verilog xil_defaultlib  "../../../lisnoc-ni-vc-support.srcs/sources_1/new/input_virtualiser.v" --include "../../../lisnoc-ni-vc-support.srcs/sources_1/imports/rtl" --include "../../../lisnoc-ni-vc-support.srcs/sources_1/new" --include "../../../lisnoc-ni-vc-support.srcs/sources_1/imports/code/lisnoc-laura-old/LISNoC/LISNoC.srcs/sources_1/imports/rtl/lisnoc16/converter" --include "../../../lisnoc-ni-vc-support.srcs/sources_1/imports/code/lisnoc-laura-old/LISNoC/LISNoC.srcs/sources_1/imports/rtl/lisnoc16/system_control" --include "../../../lisnoc-ni-vc-support.srcs/sources_1/imports/code/lisnoc-laura-old/LISNoC/LISNoC.srcs/sources_1/imports/rtl/lisnoc16" --include "../../../lisnoc-ni-vc-support.srcs/sources_1/imports/code/lisnoc-laura-old/LISNoC/LISNoC.srcs/sources_1/imports/rtl" --include "../../../lisnoc-ni-vc-support.srcs/sources_1/imports/code/lisnoc-laura-old/LISNoC/LISNoC.srcs/sources_1/imports/rtl/dma"
verilog xil_defaultlib  "../../../lisnoc-ni-vc-support.srcs/sources_1/imports/hdl/lisnoc_axi_slave_v1_0_S00_AXI.v" --include "../../../lisnoc-ni-vc-support.srcs/sources_1/imports/rtl" --include "../../../lisnoc-ni-vc-support.srcs/sources_1/new" --include "../../../lisnoc-ni-vc-support.srcs/sources_1/imports/code/lisnoc-laura-old/LISNoC/LISNoC.srcs/sources_1/imports/rtl/lisnoc16/converter" --include "../../../lisnoc-ni-vc-support.srcs/sources_1/imports/code/lisnoc-laura-old/LISNoC/LISNoC.srcs/sources_1/imports/rtl/lisnoc16/system_control" --include "../../../lisnoc-ni-vc-support.srcs/sources_1/imports/code/lisnoc-laura-old/LISNoC/LISNoC.srcs/sources_1/imports/rtl/lisnoc16" --include "../../../lisnoc-ni-vc-support.srcs/sources_1/imports/code/lisnoc-laura-old/LISNoC/LISNoC.srcs/sources_1/imports/rtl" --include "../../../lisnoc-ni-vc-support.srcs/sources_1/imports/code/lisnoc-laura-old/LISNoC/LISNoC.srcs/sources_1/imports/rtl/dma"
verilog xil_defaultlib  "../../../lisnoc-ni-vc-support.srcs/sources_1/imports/code/lisnoc-laura-old/LISNoC/LISNoC.srcs/sources_1/imports/rtl/router/lisnoc_router_2dgrid.v" --include "../../../lisnoc-ni-vc-support.srcs/sources_1/imports/rtl" --include "../../../lisnoc-ni-vc-support.srcs/sources_1/new" --include "../../../lisnoc-ni-vc-support.srcs/sources_1/imports/code/lisnoc-laura-old/LISNoC/LISNoC.srcs/sources_1/imports/rtl/lisnoc16/converter" --include "../../../lisnoc-ni-vc-support.srcs/sources_1/imports/code/lisnoc-laura-old/LISNoC/LISNoC.srcs/sources_1/imports/rtl/lisnoc16/system_control" --include "../../../lisnoc-ni-vc-support.srcs/sources_1/imports/code/lisnoc-laura-old/LISNoC/LISNoC.srcs/sources_1/imports/rtl/lisnoc16" --include "../../../lisnoc-ni-vc-support.srcs/sources_1/imports/code/lisnoc-laura-old/LISNoC/LISNoC.srcs/sources_1/imports/rtl" --include "../../../lisnoc-ni-vc-support.srcs/sources_1/imports/code/lisnoc-laura-old/LISNoC/LISNoC.srcs/sources_1/imports/rtl/dma"
verilog xil_defaultlib  "../../../lisnoc-ni-vc-support.srcs/sources_1/imports/new/lisnoc_mp_interface.v" --include "../../../lisnoc-ni-vc-support.srcs/sources_1/imports/rtl" --include "../../../lisnoc-ni-vc-support.srcs/sources_1/new" --include "../../../lisnoc-ni-vc-support.srcs/sources_1/imports/code/lisnoc-laura-old/LISNoC/LISNoC.srcs/sources_1/imports/rtl/lisnoc16/converter" --include "../../../lisnoc-ni-vc-support.srcs/sources_1/imports/code/lisnoc-laura-old/LISNoC/LISNoC.srcs/sources_1/imports/rtl/lisnoc16/system_control" --include "../../../lisnoc-ni-vc-support.srcs/sources_1/imports/code/lisnoc-laura-old/LISNoC/LISNoC.srcs/sources_1/imports/rtl/lisnoc16" --include "../../../lisnoc-ni-vc-support.srcs/sources_1/imports/code/lisnoc-laura-old/LISNoC/LISNoC.srcs/sources_1/imports/rtl" --include "../../../lisnoc-ni-vc-support.srcs/sources_1/imports/code/lisnoc-laura-old/LISNoC/LISNoC.srcs/sources_1/imports/rtl/dma"
verilog xil_defaultlib  "../../../lisnoc-ni-vc-support.srcs/sources_1/imports/meshs/lisnoc_mesh2x2.v" --include "../../../lisnoc-ni-vc-support.srcs/sources_1/imports/rtl" --include "../../../lisnoc-ni-vc-support.srcs/sources_1/new" --include "../../../lisnoc-ni-vc-support.srcs/sources_1/imports/code/lisnoc-laura-old/LISNoC/LISNoC.srcs/sources_1/imports/rtl/lisnoc16/converter" --include "../../../lisnoc-ni-vc-support.srcs/sources_1/imports/code/lisnoc-laura-old/LISNoC/LISNoC.srcs/sources_1/imports/rtl/lisnoc16/system_control" --include "../../../lisnoc-ni-vc-support.srcs/sources_1/imports/code/lisnoc-laura-old/LISNoC/LISNoC.srcs/sources_1/imports/rtl/lisnoc16" --include "../../../lisnoc-ni-vc-support.srcs/sources_1/imports/code/lisnoc-laura-old/LISNoC/LISNoC.srcs/sources_1/imports/rtl" --include "../../../lisnoc-ni-vc-support.srcs/sources_1/imports/code/lisnoc-laura-old/LISNoC/LISNoC.srcs/sources_1/imports/rtl/dma"
verilog xil_defaultlib  "../../../lisnoc-ni-vc-support.srcs/sources_1/new/lisnoc_probe.v" --include "../../../lisnoc-ni-vc-support.srcs/sources_1/imports/rtl" --include "../../../lisnoc-ni-vc-support.srcs/sources_1/new" --include "../../../lisnoc-ni-vc-support.srcs/sources_1/imports/code/lisnoc-laura-old/LISNoC/LISNoC.srcs/sources_1/imports/rtl/lisnoc16/converter" --include "../../../lisnoc-ni-vc-support.srcs/sources_1/imports/code/lisnoc-laura-old/LISNoC/LISNoC.srcs/sources_1/imports/rtl/lisnoc16/system_control" --include "../../../lisnoc-ni-vc-support.srcs/sources_1/imports/code/lisnoc-laura-old/LISNoC/LISNoC.srcs/sources_1/imports/rtl/lisnoc16" --include "../../../lisnoc-ni-vc-support.srcs/sources_1/imports/code/lisnoc-laura-old/LISNoC/LISNoC.srcs/sources_1/imports/rtl" --include "../../../lisnoc-ni-vc-support.srcs/sources_1/imports/code/lisnoc-laura-old/LISNoC/LISNoC.srcs/sources_1/imports/rtl/dma"
verilog xil_defaultlib  "../../../lisnoc-ni-vc-support.srcs/sources_1/imports/hdl/axi_master_for_testing_v1_0_M00_AXI.v" --include "../../../lisnoc-ni-vc-support.srcs/sources_1/imports/rtl" --include "../../../lisnoc-ni-vc-support.srcs/sources_1/new" --include "../../../lisnoc-ni-vc-support.srcs/sources_1/imports/code/lisnoc-laura-old/LISNoC/LISNoC.srcs/sources_1/imports/rtl/lisnoc16/converter" --include "../../../lisnoc-ni-vc-support.srcs/sources_1/imports/code/lisnoc-laura-old/LISNoC/LISNoC.srcs/sources_1/imports/rtl/lisnoc16/system_control" --include "../../../lisnoc-ni-vc-support.srcs/sources_1/imports/code/lisnoc-laura-old/LISNoC/LISNoC.srcs/sources_1/imports/rtl/lisnoc16" --include "../../../lisnoc-ni-vc-support.srcs/sources_1/imports/code/lisnoc-laura-old/LISNoC/LISNoC.srcs/sources_1/imports/rtl" --include "../../../lisnoc-ni-vc-support.srcs/sources_1/imports/code/lisnoc-laura-old/LISNoC/LISNoC.srcs/sources_1/imports/rtl/dma"
verilog xil_defaultlib  "../../../lisnoc-ni-vc-support.srcs/sources_1/new/NOC_AXI_testmodule.v" --include "../../../lisnoc-ni-vc-support.srcs/sources_1/imports/rtl" --include "../../../lisnoc-ni-vc-support.srcs/sources_1/new" --include "../../../lisnoc-ni-vc-support.srcs/sources_1/imports/code/lisnoc-laura-old/LISNoC/LISNoC.srcs/sources_1/imports/rtl/lisnoc16/converter" --include "../../../lisnoc-ni-vc-support.srcs/sources_1/imports/code/lisnoc-laura-old/LISNoC/LISNoC.srcs/sources_1/imports/rtl/lisnoc16/system_control" --include "../../../lisnoc-ni-vc-support.srcs/sources_1/imports/code/lisnoc-laura-old/LISNoC/LISNoC.srcs/sources_1/imports/rtl/lisnoc16" --include "../../../lisnoc-ni-vc-support.srcs/sources_1/imports/code/lisnoc-laura-old/LISNoC/LISNoC.srcs/sources_1/imports/rtl" --include "../../../lisnoc-ni-vc-support.srcs/sources_1/imports/code/lisnoc-laura-old/LISNoC/LISNoC.srcs/sources_1/imports/rtl/dma"
verilog xil_defaultlib  "../../../lisnoc-ni-vc-support.srcs/sim_1/new/td_NOC_AXI_testmodule.v" --include "../../../lisnoc-ni-vc-support.srcs/sources_1/imports/rtl" --include "../../../lisnoc-ni-vc-support.srcs/sources_1/new" --include "../../../lisnoc-ni-vc-support.srcs/sources_1/imports/code/lisnoc-laura-old/LISNoC/LISNoC.srcs/sources_1/imports/rtl/lisnoc16/converter" --include "../../../lisnoc-ni-vc-support.srcs/sources_1/imports/code/lisnoc-laura-old/LISNoC/LISNoC.srcs/sources_1/imports/rtl/lisnoc16/system_control" --include "../../../lisnoc-ni-vc-support.srcs/sources_1/imports/code/lisnoc-laura-old/LISNoC/LISNoC.srcs/sources_1/imports/rtl/lisnoc16" --include "../../../lisnoc-ni-vc-support.srcs/sources_1/imports/code/lisnoc-laura-old/LISNoC/LISNoC.srcs/sources_1/imports/rtl" --include "../../../lisnoc-ni-vc-support.srcs/sources_1/imports/code/lisnoc-laura-old/LISNoC/LISNoC.srcs/sources_1/imports/rtl/dma"

# compile glbl module
verilog xil_defaultlib "glbl.v"

# Do not sort compile order
nosort
