Copyright 1986-2016 Xilinx, Inc. All Rights Reserved.
-----------------------------------------------------------------------------------------------
| Tool Version : Vivado v.2016.4 (lin64) Build 1733598 Wed Dec 14 22:35:42 MST 2016
| Date         : Mon Apr 29 10:28:57 2019
| Host         : zynq running 64-bit Ubuntu 14.04.5 LTS
| Command      : report_control_sets -verbose -file NOC_AXI_testmodule_control_sets_placed.rpt
| Design       : NOC_AXI_testmodule
| Device       : xc7z020
-----------------------------------------------------------------------------------------------

Control Set Information

Table of Contents
-----------------
1. Summary
2. Flip-Flop Distribution
3. Detailed Control Set Information

1. Summary
----------

+----------------------------------------------------------+-------+
|                          Status                          | Count |
+----------------------------------------------------------+-------+
| Number of unique control sets                            |    13 |
| Unused register locations in slices containing registers |    50 |
+----------------------------------------------------------+-------+


2. Flip-Flop Distribution
-------------------------

+--------------+-----------------------+------------------------+-----------------+--------------+
| Clock Enable | Synchronous Set/Reset | Asynchronous Set/Reset | Total Registers | Total Slices |
+--------------+-----------------------+------------------------+-----------------+--------------+
| No           | No                    | No                     |              34 |           13 |
| No           | No                    | Yes                    |               0 |            0 |
| No           | Yes                   | No                     |              19 |           11 |
| Yes          | No                    | No                     |               0 |            0 |
| Yes          | No                    | Yes                    |               0 |            0 |
| Yes          | Yes                   | No                     |              41 |           14 |
+--------------+-----------------------+------------------------+-----------------+--------------+


3. Detailed Control Set Information
-----------------------------------

+-------------------------+------------------------------------------------------------------------------------------------+-------------------------------------------------------------------------+------------------+----------------+
|       Clock Signal      |                                          Enable Signal                                         |                             Set/Reset Signal                            | Slice Load Count | Bel Load Count |
+-------------------------+------------------------------------------------------------------------------------------------+-------------------------------------------------------------------------+------------------+----------------+
|  s00_axi_aclk_IBUF_BUFG | network/u_router_0_0/u_router/inputs[4].inputs/vchannel[0].route/fifo_write_ptr_reg[0]         | network/u_router_0_0/u_router/outputs[4].outputs/vchannel[0].fifo/SR[0] |                1 |              1 |
|  s00_axi_aclk_IBUF_BUFG | network/u_router_0_0/u_router/inputs[2].inputs/vchannel[0].fifo/pop__0_0                       | network/u_router_0_0/u_router/outputs[4].outputs/vchannel[0].fifo/SR[0] |                1 |              1 |
|  s00_axi_aclk_IBUF_BUFG | network/u_router_0_1/u_router/inputs[2].inputs/vchannel[0].fifo/pop__0                         | network/u_router_0_0/u_router/outputs[4].outputs/vchannel[0].fifo/SR[0] |                1 |              1 |
|  s00_axi_aclk_IBUF_BUFG | core_0/recieving_fifo/s00_axi_rdata[31]                                                        |                                                                         |                1 |              1 |
|  s00_axi_aclk_IBUF_BUFG | network/u_router_0_0/u_router/inputs[2].inputs/vchannel[0].fifo/fifo_write_ptr[4]_i_1__1_n_0   | network/u_router_0_0/u_router/outputs[4].outputs/vchannel[0].fifo/SR[0] |                2 |              5 |
|  s00_axi_aclk_IBUF_BUFG | network/u_router_0_0/u_router/inputs[1].inputs/vchannel[0].fifo/fifo_write_ptr[4]_i_1__0_n_0   | network/u_router_0_0/u_router/outputs[4].outputs/vchannel[0].fifo/SR[0] |                2 |              5 |
|  s00_axi_aclk_IBUF_BUFG | network/u_router_0_0/u_router/outputs[4].outputs/vchannel[0].fifo/fifo_write_ptr[4]_i_1__2_n_0 | network/u_router_0_0/u_router/outputs[4].outputs/vchannel[0].fifo/SR[0] |                1 |              5 |
|  s00_axi_aclk_IBUF_BUFG | network/u_router_0_1/u_router/inputs[2].inputs/vchannel[0].fifo/fifo_write_ptr[4]_i_1__3_n_0   | network/u_router_0_0/u_router/outputs[4].outputs/vchannel[0].fifo/SR[0] |                1 |              5 |
|  s00_axi_aclk_IBUF_BUFG | network/u_router_0_1/u_router/outputs[3].outputs/vchannel[0].arbiter/E[0]                      | network/u_router_0_0/u_router/outputs[4].outputs/vchannel[0].fifo/SR[0] |                3 |              5 |
|  s00_axi_aclk_IBUF_BUFG | core_0/recieving_fifo/fifo_write_ptr[4]_i_1_n_0                                                | network/u_router_0_0/u_router/outputs[4].outputs/vchannel[0].fifo/SR[0] |                1 |              5 |
|  s00_axi_aclk_IBUF_BUFG | core_0/lisnoc_axi_slave_v1_0_S00_AXI_inst/axi_arlen[7]_i_2_n_0                                 | network/u_router_0_0/u_router/outputs[4].outputs/vchannel[0].fifo/SR[0] |                1 |              8 |
|  s00_axi_aclk_IBUF_BUFG |                                                                                                | network/u_router_0_0/u_router/outputs[4].outputs/vchannel[0].fifo/SR[0] |               11 |             19 |
|  s00_axi_aclk_IBUF_BUFG |                                                                                                |                                                                         |               13 |             34 |
+-------------------------+------------------------------------------------------------------------------------------------+-------------------------------------------------------------------------+------------------+----------------+


+--------+-----------------------+
| Fanout | Number of ControlSets |
+--------+-----------------------+
| 1      |                     4 |
| 5      |                     6 |
| 8      |                     1 |
| 16+    |                     2 |
+--------+-----------------------+


