INFO: [VRFC 10-2263] Analyzing Verilog file "/home/jhippe/repos/lisnoc/code/export_ip/dummy_test_1.0/hdl/dummy_test_v1_0.v" into library xil_defaultlib
INFO: [VRFC 10-311] analyzing module dummy_test_v1_0
INFO: [VRFC 10-2263] Analyzing Verilog file "/home/jhippe/repos/lisnoc/code/export_ip/edit_dummy_test_v1_0.sim/sim_1/behav/glbl.v" into library xil_defaultlib
INFO: [VRFC 10-311] analyzing module glbl
